[
  {
    "name": "List access requests for a group or project",
    "description": "Gets a list of access requests viewable by the authenticated user.",
    "method": "GET",
    "path": "/groups/:id/access_requests",
    "params": [
      {
        "name": "id",
        "type": "integer/string",
        "required": true,
        "description": "The ID or URL-encoded path of the project owned by the authenticated user"
      }
    ]
  },
  {
    "name": "List access requests for a group or project",
    "description": "Gets a list of access requests viewable by the authenticated user.",
    "method": "GET",
    "path": "/projects/:id/access_requests",
    "params": [
      {
        "name": "id",
        "type": "integer/string",
        "required": true,
        "description": "The ID or URL-encoded path of the project owned by the authenticated user"
      }
    ]
  },
  {
    "name": "Request access to a group or project",
    "description": "Requests access for the authenticated user to a group or project.",
    "method": "POST",
    "path": "/groups/:id/access_requests",
    "params": [
      {
        "name": "id",
        "type": "integer/string",
        "required": true,
        "description": "The ID or URL-encoded path of the project owned by the authenticated user"
      }
    ]
  },
  {
    "name": "Request access to a group or project",
    "description": "Requests access for the authenticated user to a group or project.",
    "method": "POST",
    "path": "/projects/:id/access_requests",
    "params": [
      {
        "name": "id",
        "type": "integer/string",
        "required": true,
        "description": "The ID or URL-encoded path of the project owned by the authenticated user"
      }
    ]
  },
  {
    "name": "Approve an access request",
    "description": "Approves an access request for the given user.",
    "method": "PUT",
    "path": "/groups/:id/access_requests/:user_id/approve",
    "params": [
      {
        "name": "id",
        "type": "integer/string",
        "required": true,
        "description": "The ID or URL-encoded path of the project owned by the authenticated user"
      },
      {
        "name": "user_id",
        "type": "integer",
        "required": true,
        "description": "The user ID of the access requester"
      },
      {
        "name": "access_level",
        "type": "integer",
        "required": false,
        "description": "A valid access level (defaults: 30, developer access level)"
      }
    ]
  },
  {
    "name": "Approve an access request",
    "description": "Approves an access request for the given user.",
    "method": "PUT",
    "path": "/projects/:id/access_requests/:user_id/approve",
    "params": [
      {
        "name": "id",
        "type": "integer/string",
        "required": true,
        "description": "The ID or URL-encoded path of the project owned by the authenticated user"
      },
      {
        "name": "user_id",
        "type": "integer",
        "required": true,
        "description": "The user ID of the access requester"
      },
      {
        "name": "access_level",
        "type": "integer",
        "required": false,
        "description": "A valid access level (defaults: 30, developer access level)"
      }
    ]
  },
  {
    "name": "Deny an access request",
    "description": "Denies an access request for the given user.",
    "method": "DELETE",
    "path": "/groups/:id/access_requests/:user_id",
    "params": [
      {
        "name": "id",
        "type": "integer/string",
        "required": true,
        "description": "The ID or URL-encoded path of the project owned by the authenticated user"
      },
      {
        "name": "user_id",
        "type": "integer",
        "required": true,
        "description": "The user ID of the access requester"
      }
    ]
  },
  {
    "name": "Deny an access request",
    "description": "Denies an access request for the given user.",
    "method": "DELETE",
    "path": "/projects/:id/access_requests/:user_id",
    "params": [
      {
        "name": "id",
        "type": "integer/string",
        "required": true,
        "description": "The ID or URL-encoded path of the project owned by the authenticated user"
      },
      {
        "name": "user_id",
        "type": "integer",
        "required": true,
        "description": "The user ID of the access requester"
      }
    ]
  }
]