[
  {
    "name": "List an awardable's award emoji",
    "description": "Get a list of all award emoji for a specified awardable.",
    "method": "GET",
    "path": "/projects/:id/issues/:issue_iid/award_emoji",
    "params": [
      {
        "name": "id",
        "type": "integer/string",
        "required": true,
        "description": "ID or URL-encoded path of the project."
      },
      {
        "name": "issue_iid/merge_request_iid/snippet_id",
        "type": "integer",
        "required": true,
        "description": "ID (iid for merge requests/issues, id for snippets) of an awardable."
      }
    ]
  },
  {
    "name": "List an awardable's award emoji",
    "description": "Get a list of all award emoji for a specified awardable.",
    "method": "GET",
    "path": "/projects/:id/merge_requests/:merge_request_iid/award_emoji",
    "params": [
      {
        "name": "id",
        "type": "integer/string",
        "required": true,
        "description": "ID or URL-encoded path of the project."
      },
      {
        "name": "issue_iid/merge_request_iid/snippet_id",
        "type": "integer",
        "required": true,
        "description": "ID (iid for merge requests/issues, id for snippets) of an awardable."
      }
    ]
  },
  {
    "name": "List an awardable's award emoji",
    "description": "Get a list of all award emoji for a specified awardable.",
    "method": "GET",
    "path": "/projects/:id/snippets/:snippet_id/award_emoji",
    "params": [
      {
        "name": "id",
        "type": "integer/string",
        "required": true,
        "description": "ID or URL-encoded path of the project."
      },
      {
        "name": "issue_iid/merge_request_iid/snippet_id",
        "type": "integer",
        "required": true,
        "description": "ID (iid for merge requests/issues, id for snippets) of an awardable."
      }
    ]
  },
  {
    "name": "Get single award emoji",
    "description": "Get a single award emoji from an issue, snippet, or merge request.",
    "method": "GET",
    "path": "/projects/:id/issues/:issue_iid/award_emoji/:award_id",
    "params": [
      {
        "name": "id",
        "type": "integer/string",
        "required": true,
        "description": "ID or URL-encoded path of the project."
      },
      {
        "name": "issue_iid/merge_request_iid/snippet_id",
        "type": "integer",
        "required": true,
        "description": "ID (iid for merge requests/issues, id for snippets) of an awardable."
      },
      {
        "name": "award_id",
        "type": "integer",
        "required": true,
        "description": "ID of the award emoji."
      }
    ]
  },
  {
    "name": "Get single award emoji",
    "description": "Get a single award emoji from an issue, snippet, or merge request.",
    "method": "GET",
    "path": "/projects/:id/merge_requests/:merge_request_iid/award_emoji/:award_id",
    "params": [
      {
        "name": "id",
        "type": "integer/string",
        "required": true,
        "description": "ID or URL-encoded path of the project."
      },
      {
        "name": "issue_iid/merge_request_iid/snippet_id",
        "type": "integer",
        "required": true,
        "description": "ID (iid for merge requests/issues, id for snippets) of an awardable."
      },
      {
        "name": "award_id",
        "type": "integer",
        "required": true,
        "description": "ID of the award emoji."
      }
    ]
  },
  {
    "name": "Get single award emoji",
    "description": "Get a single award emoji from an issue, snippet, or merge request.",
    "method": "GET",
    "path": "/projects/:id/snippets/:snippet_id/award_emoji/:award_id",
    "params": [
      {
        "name": "id",
        "type": "integer/string",
        "required": true,
        "description": "ID or URL-encoded path of the project."
      },
      {
        "name": "issue_iid/merge_request_iid/snippet_id",
        "type": "integer",
        "required": true,
        "description": "ID (iid for merge requests/issues, id for snippets) of an awardable."
      },
      {
        "name": "award_id",
        "type": "integer",
        "required": true,
        "description": "ID of the award emoji."
      }
    ]
  },
  {
    "name": "Award a new emoji",
    "description": "Create an award emoji on the specified awardable.",
    "method": "POST",
    "path": "/projects/:id/issues/:issue_iid/award_emoji",
    "params": [
      {
        "name": "id",
        "type": "integer/string",
        "required": true,
        "description": "ID or URL-encoded path of the project."
      },
      {
        "name": "issue_iid/merge_request_iid/snippet_id",
        "type": "integer",
        "required": true,
        "description": "ID (iid for merge requests/issues, id for snippets) of an awardable."
      },
      {
        "name": "name",
        "type": "string",
        "required": true,
        "description": "Name of the emoji without colons."
      }
    ]
  },
  {
    "name": "Award a new emoji",
    "description": "Create an award emoji on the specified awardable.",
    "method": "POST",
    "path": "/projects/:id/merge_requests/:merge_request_iid/award_emoji",
    "params": [
      {
        "name": "id",
        "type": "integer/string",
        "required": true,
        "description": "ID or URL-encoded path of the project."
      },
      {
        "name": "issue_iid/merge_request_iid/snippet_id",
        "type": "integer",
        "required": true,
        "description": "ID (iid for merge requests/issues, id for snippets) of an awardable."
      },
      {
        "name": "name",
        "type": "string",
        "required": true,
        "description": "Name of the emoji without colons."
      }
    ]
  },
  {
    "name": "Award a new emoji",
    "description": "Create an award emoji on the specified awardable.",
    "method": "POST",
    "path": "/projects/:id/snippets/:snippet_id/award_emoji",
    "params": [
      {
        "name": "id",
        "type": "integer/string",
        "required": true,
        "description": "ID or URL-encoded path of the project."
      },
      {
        "name": "issue_iid/merge_request_iid/snippet_id",
        "type": "integer",
        "required": true,
        "description": "ID (iid for merge requests/issues, id for snippets) of an awardable."
      },
      {
        "name": "name",
        "type": "string",
        "required": true,
        "description": "Name of the emoji without colons."
      }
    ]
  },
  {
    "name": "Delete an award emoji",
    "description": "Sometimes it's just not meant to be and you'll have to remove the award.  NOTE: **Note:** Only available to administrators or the author of the award.",
    "method": "DELETE",
    "path": "/projects/:id/issues/:issue_iid/award_emoji/:award_id",
    "params": [
      {
        "name": "id",
        "type": "integer/string",
        "required": true,
        "description": "ID or URL-encoded path of the project."
      },
      {
        "name": "issue_iid/merge_request_iid/snippet_id",
        "type": "integer",
        "required": true,
        "description": "ID (iid for merge requests/issues, id for snippets) of an awardable."
      },
      {
        "name": "award_id",
        "type": "integer",
        "required": true,
        "description": "ID of an award emoji."
      }
    ]
  },
  {
    "name": "Delete an award emoji",
    "description": "Sometimes it's just not meant to be and you'll have to remove the award.  NOTE: **Note:** Only available to administrators or the author of the award.",
    "method": "DELETE",
    "path": "/projects/:id/merge_requests/:merge_request_iid/award_emoji/:award_id",
    "params": [
      {
        "name": "id",
        "type": "integer/string",
        "required": true,
        "description": "ID or URL-encoded path of the project."
      },
      {
        "name": "issue_iid/merge_request_iid/snippet_id",
        "type": "integer",
        "required": true,
        "description": "ID (iid for merge requests/issues, id for snippets) of an awardable."
      },
      {
        "name": "award_id",
        "type": "integer",
        "required": true,
        "description": "ID of an award emoji."
      }
    ]
  },
  {
    "name": "Delete an award emoji",
    "description": "Sometimes it's just not meant to be and you'll have to remove the award.  NOTE: **Note:** Only available to administrators or the author of the award.",
    "method": "DELETE",
    "path": "/projects/:id/snippets/:snippet_id/award_emoji/:award_id",
    "params": [
      {
        "name": "id",
        "type": "integer/string",
        "required": true,
        "description": "ID or URL-encoded path of the project."
      },
      {
        "name": "issue_iid/merge_request_iid/snippet_id",
        "type": "integer",
        "required": true,
        "description": "ID (iid for merge requests/issues, id for snippets) of an awardable."
      },
      {
        "name": "award_id",
        "type": "integer",
        "required": true,
        "description": "ID of an award emoji."
      }
    ]
  },
  {
    "name": "List a comment's award emoji",
    "description": "Get all award emoji for a comment (note).",
    "method": "GET",
    "path": "/projects/:id/issues/:issue_iid/notes/:note_id/award_emoji",
    "params": [
      {
        "name": "id",
        "type": "integer/string",
        "required": true,
        "description": "ID or URL-encoded path of the project."
      },
      {
        "name": "issue_iid",
        "type": "integer",
        "required": true,
        "description": "Internal ID of an issue."
      },
      {
        "name": "note_id",
        "type": "integer",
        "required": true,
        "description": "ID of a comment (note)."
      }
    ]
  },
  {
    "name": "Get an award emoji for a comment",
    "description": "Get a single award emoji for a comment (note).",
    "method": "GET",
    "path": "/projects/:id/issues/:issue_iid/notes/:note_id/award_emoji/:award_id",
    "params": [
      {
        "name": "id",
        "type": "integer/string",
        "required": true,
        "description": "ID or URL-encoded path of the project."
      },
      {
        "name": "issue_iid",
        "type": "integer",
        "required": true,
        "description": "Internal ID of an issue."
      },
      {
        "name": "note_id",
        "type": "integer",
        "required": true,
        "description": "ID of a comment (note)."
      },
      {
        "name": "award_id",
        "type": "integer",
        "required": true,
        "description": "ID of the award emoji."
      }
    ]
  },
  {
    "name": "Award a new emoji on a comment",
    "description": "Create an award emoji on the specified comment (note).",
    "method": "POST",
    "path": "/projects/:id/issues/:issue_iid/notes/:note_id/award_emoji",
    "params": [
      {
        "name": "id",
        "type": "integer/string",
        "required": true,
        "description": "ID or URL-encoded path of the project."
      },
      {
        "name": "issue_iid",
        "type": "integer",
        "required": true,
        "description": "Internal ID of an issue."
      },
      {
        "name": "note_id",
        "type": "integer",
        "required": true,
        "description": "ID of a comment (note)."
      },
      {
        "name": "name",
        "type": "string",
        "required": true,
        "description": "Name of the emoji without colons."
      }
    ]
  },
  {
    "name": "Delete an award emoji from a comment",
    "description": "Sometimes it's just not meant to be and you'll have to remove the award.  NOTE: **Note:** Only available to administrators or the author of the award.",
    "method": "DELETE",
    "path": "/projects/:id/issues/:issue_iid/notes/:note_id/award_emoji/:award_id",
    "params": [
      {
        "name": "id",
        "type": "integer/string",
        "required": true,
        "description": "ID or URL-encoded path of the project."
      },
      {
        "name": "issue_iid",
        "type": "integer",
        "required": true,
        "description": "Internal ID of an issue."
      },
      {
        "name": "note_id",
        "type": "integer",
        "required": true,
        "description": "ID of a comment (note)."
      },
      {
        "name": "award_id",
        "type": "integer",
        "required": true,
        "description": "ID of an award_emoji."
      }
    ]
  }
]