[
  {
    "name": "List custom attributes",
    "description": "Get all custom attributes on a resource.",
    "method": "GET",
    "path": "/users/:id/custom_attributes",
    "params": [
      {
        "name": "id",
        "type": "integer",
        "required": true,
        "description": "The ID of a resource"
      }
    ]
  },
  {
    "name": "List custom attributes",
    "description": "Get all custom attributes on a resource.",
    "method": "GET",
    "path": "/groups/:id/custom_attributes",
    "params": [
      {
        "name": "id",
        "type": "integer",
        "required": true,
        "description": "The ID of a resource"
      }
    ]
  },
  {
    "name": "List custom attributes",
    "description": "Get all custom attributes on a resource.",
    "method": "GET",
    "path": "/projects/:id/custom_attributes",
    "params": [
      {
        "name": "id",
        "type": "integer",
        "required": true,
        "description": "The ID of a resource"
      }
    ]
  },
  {
    "name": "Single custom attribute",
    "description": "Get a single custom attribute on a resource.",
    "method": "GET",
    "path": "/users/:id/custom_attributes/:key",
    "params": [
      {
        "name": "id",
        "type": "integer",
        "required": true,
        "description": "The ID of a resource"
      },
      {
        "name": "key",
        "type": "string",
        "required": true,
        "description": "The key of the custom attribute"
      }
    ]
  },
  {
    "name": "Single custom attribute",
    "description": "Get a single custom attribute on a resource.",
    "method": "GET",
    "path": "/groups/:id/custom_attributes/:key",
    "params": [
      {
        "name": "id",
        "type": "integer",
        "required": true,
        "description": "The ID of a resource"
      },
      {
        "name": "key",
        "type": "string",
        "required": true,
        "description": "The key of the custom attribute"
      }
    ]
  },
  {
    "name": "Single custom attribute",
    "description": "Get a single custom attribute on a resource.",
    "method": "GET",
    "path": "/projects/:id/custom_attributes/:key",
    "params": [
      {
        "name": "id",
        "type": "integer",
        "required": true,
        "description": "The ID of a resource"
      },
      {
        "name": "key",
        "type": "string",
        "required": true,
        "description": "The key of the custom attribute"
      }
    ]
  },
  {
    "name": "Set custom attribute",
    "description": "Set a custom attribute on a resource. The attribute will be updated if it already exists, or newly created otherwise.",
    "method": "PUT",
    "path": "/users/:id/custom_attributes/:key",
    "params": [
      {
        "name": "id",
        "type": "integer",
        "required": true,
        "description": "The ID of a resource"
      },
      {
        "name": "key",
        "type": "string",
        "required": true,
        "description": "The key of the custom attribute"
      },
      {
        "name": "value",
        "type": "string",
        "required": true,
        "description": "The value of the custom attribute"
      }
    ]
  },
  {
    "name": "Set custom attribute",
    "description": "Set a custom attribute on a resource. The attribute will be updated if it already exists, or newly created otherwise.",
    "method": "PUT",
    "path": "/groups/:id/custom_attributes/:key",
    "params": [
      {
        "name": "id",
        "type": "integer",
        "required": true,
        "description": "The ID of a resource"
      },
      {
        "name": "key",
        "type": "string",
        "required": true,
        "description": "The key of the custom attribute"
      },
      {
        "name": "value",
        "type": "string",
        "required": true,
        "description": "The value of the custom attribute"
      }
    ]
  },
  {
    "name": "Set custom attribute",
    "description": "Set a custom attribute on a resource. The attribute will be updated if it already exists, or newly created otherwise.",
    "method": "PUT",
    "path": "/projects/:id/custom_attributes/:key",
    "params": [
      {
        "name": "id",
        "type": "integer",
        "required": true,
        "description": "The ID of a resource"
      },
      {
        "name": "key",
        "type": "string",
        "required": true,
        "description": "The key of the custom attribute"
      },
      {
        "name": "value",
        "type": "string",
        "required": true,
        "description": "The value of the custom attribute"
      }
    ]
  },
  {
    "name": "Delete custom attribute",
    "description": "Delete a custom attribute on a resource.",
    "method": "DELETE",
    "path": "/users/:id/custom_attributes/:key",
    "params": [
      {
        "name": "id",
        "type": "integer",
        "required": true,
        "description": "The ID of a resource"
      },
      {
        "name": "key",
        "type": "string",
        "required": true,
        "description": "The key of the custom attribute"
      }
    ]
  },
  {
    "name": "Delete custom attribute",
    "description": "Delete a custom attribute on a resource.",
    "method": "DELETE",
    "path": "/groups/:id/custom_attributes/:key",
    "params": [
      {
        "name": "id",
        "type": "integer",
        "required": true,
        "description": "The ID of a resource"
      },
      {
        "name": "key",
        "type": "string",
        "required": true,
        "description": "The key of the custom attribute"
      }
    ]
  },
  {
    "name": "Delete custom attribute",
    "description": "Delete a custom attribute on a resource.",
    "method": "DELETE",
    "path": "/projects/:id/custom_attributes/:key",
    "params": [
      {
        "name": "id",
        "type": "integer",
        "required": true,
        "description": "The ID of a resource"
      },
      {
        "name": "key",
        "type": "string",
        "required": true,
        "description": "The key of the custom attribute"
      }
    ]
  }
]