[
  {
    "name": "List feature flags for a project",
    "description": "Gets all feature flags of the requested project.",
    "method": "GET",
    "path": "/projects/:id/feature_flags",
    "params": [
      {
        "name": "id",
        "type": "integer/string",
        "required": true,
        "description": "The ID or URL-encoded path of the project."
      },
      {
        "name": "scope",
        "type": "string",
        "required": false,
        "description": "The condition of feature flags, one of: enabled, disabled."
      }
    ]
  },
  {
    "name": "New feature flag",
    "description": "Creates a new feature flag.",
    "method": "POST",
    "path": "/projects/:id/feature_flags",
    "params": [
      {
        "name": "id",
        "type": "integer/string",
        "required": true,
        "description": "The ID or URL-encoded path of the project."
      },
      {
        "name": "name",
        "type": "string",
        "required": true,
        "description": "The name of the feature flag."
      },
      {
        "name": "description",
        "type": "string",
        "required": false,
        "description": "The description of the feature flag."
      },
      {
        "name": "active",
        "type": "boolean",
        "required": false,
        "description": "The active state of the flag. Defaults to true. Supported in GitLab 13.3 and later."
      },
      {
        "name": "scopes",
        "type": "JSON",
        "required": false,
        "description": "The feature flag specs of the feature flag."
      },
      {
        "name": "scopes:environment_scope",
        "type": "string",
        "required": false,
        "description": "The environment spec."
      },
      {
        "name": "scopes:active",
        "type": "boolean",
        "required": false,
        "description": "Whether the spec is active."
      },
      {
        "name": "scopes:strategies",
        "type": "JSON",
        "required": false,
        "description": "The strategies of the feature flag spec."
      }
    ]
  },
  {
    "name": "Single feature flag",
    "description": "Gets a single feature flag.",
    "method": "GET",
    "path": "/projects/:id/feature_flags/:name",
    "params": [
      {
        "name": "id",
        "type": "integer/string",
        "required": true,
        "description": "The ID or URL-encoded path of the project."
      },
      {
        "name": "name",
        "type": "string",
        "required": true,
        "description": "The name of the feature flag."
      }
    ]
  },
  {
    "name": "Delete feature flag",
    "description": "Deletes a feature flag.",
    "method": "DELETE",
    "path": "/projects/:id/feature_flags/:name",
    "params": [
      {
        "name": "id",
        "type": "integer/string",
        "required": true,
        "description": "The ID or URL-encoded path of the project."
      },
      {
        "name": "name",
        "type": "string",
        "required": true,
        "description": "The name of the feature flag."
      }
    ]
  }
]