[
  {
    "name": "List all features",
    "description": "Get a list of all persisted features, with its gate values.",
    "method": "GET",
    "path": "/features",
    "params": []
  },
  {
    "name": "Set or create a feature",
    "description": "Set a feature's gate value. If a feature with the given name doesn't exist yet it will be created. The value can be a boolean, or an integer to indicate percentage of time.",
    "method": "POST",
    "path": "/features/:name",
    "params": [
      {
        "name": "name",
        "type": "string",
        "required": true,
        "description": "Name of the feature to create or update"
      },
      {
        "name": "value",
        "type": "integer/string",
        "required": true,
        "description": "true or false to enable/disable, or an integer for percentage of time"
      },
      {
        "name": "key",
        "type": "string",
        "required": false,
        "description": "percentage_of_actors or percentage_of_time (default)"
      },
      {
        "name": "feature_group",
        "type": "string",
        "required": false,
        "description": "A Feature group name"
      },
      {
        "name": "user",
        "type": "string",
        "required": false,
        "description": "A GitLab username"
      },
      {
        "name": "group",
        "type": "string",
        "required": false,
        "description": "A GitLab group's path, for example gitlab-org"
      },
      {
        "name": "project",
        "type": "string",
        "required": false,
        "description": "A projects path, for example gitlab-org/gitlab-foss"
      }
    ]
  },
  {
    "name": "Set percentage of actors rollout",
    "description": "Rollout to percentage of actors.",
    "method": "POST",
    "path": "https://gitlab.example.com/api/v4/features/my_user_feature?private_token=<your_access_token>",
    "params": []
  },
  {
    "name": "Set percentage of actors rollout",
    "description": "Rollout to percentage of actors.",
    "method": "Content-Type:",
    "path": "application/x-www-form-urlencoded",
    "params": []
  },
  {
    "name": "Set percentage of actors rollout",
    "description": "Rollout to percentage of actors.",
    "method": "value=42&key=percentage_of_actors&",
    "params": []
  }
]