[
  {
    "name": "List all badges of a group",
    "description": "Gets a list of a group's badges.",
    "method": "GET",
    "path": "/groups/:id/badges",
    "params": [
      {
        "name": "id",
        "type": "integer/string",
        "required": true,
        "description": "The ID or URL-encoded path of the group owned by the authenticated user"
      },
      {
        "name": "name",
        "type": "string",
        "required": false,
        "description": "Name of the badges to return (case-sensitive)."
      }
    ]
  },
  {
    "name": "Get a badge of a group",
    "description": "Gets a badge of a group.",
    "method": "GET",
    "path": "/groups/:id/badges/:badge_id",
    "params": [
      {
        "name": "id",
        "type": "integer/string",
        "required": true,
        "description": "The ID or URL-encoded path of the group owned by the authenticated user"
      },
      {
        "name": "badge_id",
        "type": "integer",
        "required": true,
        "description": "The badge ID"
      }
    ]
  },
  {
    "name": "Add a badge to a group",
    "description": "Adds a badge to a group.",
    "method": "POST",
    "path": "/groups/:id/badges",
    "params": [
      {
        "name": "id",
        "type": "integer/string",
        "required": true,
        "description": "The ID or URL-encoded path of the group owned by the authenticated user"
      },
      {
        "name": "link_url",
        "type": "string",
        "required": true,
        "description": "URL of the badge link"
      },
      {
        "name": "image_url",
        "type": "string",
        "required": true,
        "description": "URL of the badge image"
      }
    ]
  },
  {
    "name": "Edit a badge of a group",
    "description": "Updates a badge of a group.",
    "method": "PUT",
    "path": "/groups/:id/badges/:badge_id",
    "params": [
      {
        "name": "id",
        "type": "integer/string",
        "required": true,
        "description": "The ID or URL-encoded path of the group owned by the authenticated user"
      },
      {
        "name": "badge_id",
        "type": "integer",
        "required": true,
        "description": "The badge ID"
      },
      {
        "name": "link_url",
        "type": "string",
        "required": false,
        "description": "URL of the badge link"
      },
      {
        "name": "image_url",
        "type": "string",
        "required": false,
        "description": "URL of the badge image"
      }
    ]
  },
  {
    "name": "Remove a badge from a group",
    "description": "Removes a badge from a group.",
    "method": "DELETE",
    "path": "/groups/:id/badges/:badge_id",
    "params": [
      {
        "name": "id",
        "type": "integer/string",
        "required": true,
        "description": "The ID or URL-encoded path of the group owned by the authenticated user"
      },
      {
        "name": "badge_id",
        "type": "integer",
        "required": true,
        "description": "The badge ID"
      }
    ]
  },
  {
    "name": "Preview a badge from a group",
    "description": "Returns how the `link_url` and `image_url` final URLs would be after resolving the placeholder interpolation.",
    "method": "GET",
    "path": "/groups/:id/badges/render",
    "params": [
      {
        "name": "id",
        "type": "integer/string",
        "required": true,
        "description": "The ID or URL-encoded path of the group owned by the authenticated user"
      },
      {
        "name": "link_url",
        "type": "string",
        "required": true,
        "description": "URL of the badge link"
      },
      {
        "name": "image_url",
        "type": "string",
        "required": true,
        "description": "URL of the badge image"
      }
    ]
  }
]