[
  {
    "name": "List issue relations",
    "description": "Get a list of a given issue's [related issues](../user/project/issues/related_issues.md), sorted by the relationship creation datetime (ascending). Issues will be filtered according to the user authorizations.",
    "method": "GET",
    "path": "/projects/:id/issues/:issue_iid/links",
    "params": [
      {
        "name": "id",
        "type": "integer/string",
        "required": true,
        "description": "The ID or URL-encoded path of the project owned by the authenticated user"
      },
      {
        "name": "issue_iid",
        "type": "integer",
        "required": true,
        "description": "The internal ID of a project's issue"
      }
    ]
  },
  {
    "name": "Create an issue link",
    "description": "Creates a two-way relation between two issues. The user must be allowed to update both issues to succeed.",
    "method": "POST",
    "path": "/projects/:id/issues/:issue_iid/links",
    "params": [
      {
        "name": "id",
        "type": "integer/string",
        "required": true,
        "description": "The ID or URL-encoded path of the project owned by the authenticated user"
      },
      {
        "name": "issue_iid",
        "type": "integer",
        "required": true,
        "description": "The internal ID of a project's issue"
      },
      {
        "name": "target_project_id",
        "type": "integer/string",
        "required": true,
        "description": "The ID or URL-encoded path of the project of a target project"
      },
      {
        "name": "target_issue_iid",
        "type": "integer/string",
        "required": true,
        "description": "The internal ID of a target project's issue"
      },
      {
        "name": "link_type",
        "type": "string",
        "required": false,
        "description": "The type of the relation (\"relates_to\", \"blocks\", \"is_blocked_by\"), defaults to \"relates_to\")."
      }
    ]
  },
  {
    "name": "Delete an issue link",
    "description": "Deletes an issue link, thus removes the two-way relationship.",
    "method": "DELETE",
    "path": "/projects/:id/issues/:issue_iid/links/:issue_link_id",
    "params": [
      {
        "name": "id",
        "type": "integer/string",
        "required": true,
        "description": "The ID or URL-encoded path of the project owned by the authenticated user"
      },
      {
        "name": "issue_iid",
        "type": "integer",
        "required": true,
        "description": "The internal ID of a project's issue"
      },
      {
        "name": "issue_link_id",
        "type": "integer/string",
        "required": true,
        "description": "The ID of an issue relationship"
      },
      {
        "name": "link_type",
        "type": "string",
        "required": false,
        "description": "The type of the relation ('relates_to', 'blocks', 'is_blocked_by'), defaults to 'relates_to'"
      }
    ]
  }
]