[
  {
    "name": "Retrieve information about the current license",
    "description": "",
    "method": "GET",
    "path": "/license",
    "params": []
  },
  {
    "name": "Retrieve information about all licenses",
    "description": "",
    "method": "GET",
    "path": "/licenses",
    "params": []
  },
  {
    "name": "Add a new license",
    "description": "",
    "method": "POST",
    "path": "/license",
    "params": [
      {
        "name": "license",
        "type": "string",
        "required": true,
        "description": "The license string"
      }
    ]
  },
  {
    "name": "Delete a license",
    "description": "",
    "method": "DELETE",
    "path": "/license/:id",
    "params": [
      {
        "name": "id",
        "type": "integer",
        "required": true,
        "description": "ID of the GitLab license."
      }
    ]
  }
]