[
  {
    "name": "Render an arbitrary Markdown document",
    "description": "",
    "method": "POST",
    "path": "/api/v4/markdown",
    "params": [
      {
        "name": "text",
        "type": "string",
        "required": true,
        "description": "The Markdown text to render"
      },
      {
        "name": "gfm",
        "type": "boolean",
        "required": false,
        "description": "Render text using GitLab Flavored Markdown. Default is false"
      },
      {
        "name": "project",
        "type": "string",
        "required": false,
        "description": "Use project as a context when creating references using GitLab Flavored Markdown. Authentication is required if a project is not public."
      }
    ]
  }
]