[
  {
    "name": "List namespaces",
    "description": "Get a list of the namespaces of the authenticated user. If the user is an administrator, a list of all namespaces in the GitLab instance is shown.",
    "method": "GET",
    "path": "/namespaces",
    "params": []
  },
  {
    "name": "Search for namespace",
    "description": "Get all namespaces that match a string in their name or path.",
    "method": "GET",
    "path": "/namespaces?search=foobar",
    "params": [
      {
        "name": "search",
        "type": "string",
        "required": false,
        "description": "Returns a list of namespaces the user is authorized to see based on the search criteria"
      }
    ]
  },
  {
    "name": "Get namespace by ID",
    "description": "Get a namespace by ID.",
    "method": "GET",
    "path": "/namespaces/:id",
    "params": [
      {
        "name": "id",
        "type": "integer/string",
        "required": true,
        "description": "ID or URL-encoded path of the namespace"
      }
    ]
  }
]