[
  {
    "name": "Global notification settings",
    "description": "Get current notification settings and email address.",
    "method": "GET",
    "path": "/notification_settings",
    "params": []
  },
  {
    "name": "Update global notification settings",
    "description": "Update current notification settings and email address.",
    "method": "PUT",
    "path": "/notification_settings",
    "params": [
      {
        "name": "level",
        "type": "string",
        "required": false,
        "description": "The global notification level"
      },
      {
        "name": "notification_email",
        "type": "string",
        "required": false,
        "description": "The email address to send notifications"
      },
      {
        "name": "new_note",
        "type": "boolean",
        "required": false,
        "description": "Enable/disable this notification"
      },
      {
        "name": "new_issue",
        "type": "boolean",
        "required": false,
        "description": "Enable/disable this notification"
      },
      {
        "name": "reopen_issue",
        "type": "boolean",
        "required": false,
        "description": "Enable/disable this notification"
      },
      {
        "name": "close_issue",
        "type": "boolean",
        "required": false,
        "description": "Enable/disable this notification"
      },
      {
        "name": "reassign_issue",
        "type": "boolean",
        "required": false,
        "description": "Enable/disable this notification"
      },
      {
        "name": "issue_due",
        "type": "boolean",
        "required": false,
        "description": "Enable/disable this notification"
      },
      {
        "name": "new_merge_request",
        "type": "boolean",
        "required": false,
        "description": "Enable/disable this notification"
      },
      {
        "name": "push_to_merge_request",
        "type": "boolean",
        "required": false,
        "description": "Enable/disable this notification"
      },
      {
        "name": "reopen_merge_request",
        "type": "boolean",
        "required": false,
        "description": "Enable/disable this notification"
      },
      {
        "name": "close_merge_request",
        "type": "boolean",
        "required": false,
        "description": "Enable/disable this notification"
      },
      {
        "name": "reassign_merge_request",
        "type": "boolean",
        "required": false,
        "description": "Enable/disable this notification"
      },
      {
        "name": "merge_merge_request",
        "type": "boolean",
        "required": false,
        "description": "Enable/disable this notification"
      },
      {
        "name": "failed_pipeline",
        "type": "boolean",
        "required": false,
        "description": "Enable/disable this notification"
      },
      {
        "name": "fixed_pipeline",
        "type": "boolean",
        "required": false,
        "description": "Enable/disable this notification"
      },
      {
        "name": "success_pipeline",
        "type": "boolean",
        "required": false,
        "description": "Enable/disable this notification"
      },
      {
        "name": "moved_project",
        "type": "boolean",
        "required": false,
        "description": "Enable/disable this notification (Introduced in GitLab 13.3)"
      },
      {
        "name": "new_epic",
        "type": "boolean",
        "required": false,
        "description": "Enable/disable this notification (Introduced in GitLab 11.3) (ULTIMATE)"
      }
    ]
  },
  {
    "name": "Group / project level notification settings",
    "description": "Get current group or project notification settings.",
    "method": "GET",
    "path": "/groups/:id/notification_settings",
    "params": [
      {
        "name": "id",
        "type": "integer/string",
        "required": true,
        "description": "The group/project ID or path"
      }
    ]
  },
  {
    "name": "Group / project level notification settings",
    "description": "Get current group or project notification settings.",
    "method": "GET",
    "path": "/projects/:id/notification_settings",
    "params": [
      {
        "name": "id",
        "type": "integer/string",
        "required": true,
        "description": "The group/project ID or path"
      }
    ]
  },
  {
    "name": "Update group/project level notification settings",
    "description": "Update current group/project notification settings.",
    "method": "PUT",
    "path": "/groups/:id/notification_settings",
    "params": [
      {
        "name": "id",
        "type": "integer/string",
        "required": true,
        "description": "The group/project ID or path"
      },
      {
        "name": "level",
        "type": "string",
        "required": false,
        "description": "The global notification level"
      },
      {
        "name": "new_note",
        "type": "boolean",
        "required": false,
        "description": "Enable/disable this notification"
      },
      {
        "name": "new_issue",
        "type": "boolean",
        "required": false,
        "description": "Enable/disable this notification"
      },
      {
        "name": "reopen_issue",
        "type": "boolean",
        "required": false,
        "description": "Enable/disable this notification"
      },
      {
        "name": "close_issue",
        "type": "boolean",
        "required": false,
        "description": "Enable/disable this notification"
      },
      {
        "name": "reassign_issue",
        "type": "boolean",
        "required": false,
        "description": "Enable/disable this notification"
      },
      {
        "name": "issue_due",
        "type": "boolean",
        "required": false,
        "description": "Enable/disable this notification"
      },
      {
        "name": "new_merge_request",
        "type": "boolean",
        "required": false,
        "description": "Enable/disable this notification"
      },
      {
        "name": "push_to_merge_request",
        "type": "boolean",
        "required": false,
        "description": "Enable/disable this notification"
      },
      {
        "name": "reopen_merge_request",
        "type": "boolean",
        "required": false,
        "description": "Enable/disable this notification"
      },
      {
        "name": "close_merge_request",
        "type": "boolean",
        "required": false,
        "description": "Enable/disable this notification"
      },
      {
        "name": "reassign_merge_request",
        "type": "boolean",
        "required": false,
        "description": "Enable/disable this notification"
      },
      {
        "name": "merge_merge_request",
        "type": "boolean",
        "required": false,
        "description": "Enable/disable this notification"
      },
      {
        "name": "failed_pipeline",
        "type": "boolean",
        "required": false,
        "description": "Enable/disable this notification"
      },
      {
        "name": "fixed_pipeline",
        "type": "boolean",
        "required": false,
        "description": "Enable/disable this notification"
      },
      {
        "name": "success_pipeline",
        "type": "boolean",
        "required": false,
        "description": "Enable/disable this notification"
      },
      {
        "name": "moved_project",
        "type": "boolean",
        "required": false,
        "description": "Enable/disable this notification (Introduced in GitLab 13.3)"
      },
      {
        "name": "new_epic",
        "type": "boolean",
        "required": false,
        "description": "Enable/disable this notification (Introduced in GitLab 11.3) (ULTIMATE)"
      }
    ]
  },
  {
    "name": "Update group/project level notification settings",
    "description": "Update current group/project notification settings.",
    "method": "PUT",
    "path": "/projects/:id/notification_settings",
    "params": [
      {
        "name": "id",
        "type": "integer/string",
        "required": true,
        "description": "The group/project ID or path"
      },
      {
        "name": "level",
        "type": "string",
        "required": false,
        "description": "The global notification level"
      },
      {
        "name": "new_note",
        "type": "boolean",
        "required": false,
        "description": "Enable/disable this notification"
      },
      {
        "name": "new_issue",
        "type": "boolean",
        "required": false,
        "description": "Enable/disable this notification"
      },
      {
        "name": "reopen_issue",
        "type": "boolean",
        "required": false,
        "description": "Enable/disable this notification"
      },
      {
        "name": "close_issue",
        "type": "boolean",
        "required": false,
        "description": "Enable/disable this notification"
      },
      {
        "name": "reassign_issue",
        "type": "boolean",
        "required": false,
        "description": "Enable/disable this notification"
      },
      {
        "name": "issue_due",
        "type": "boolean",
        "required": false,
        "description": "Enable/disable this notification"
      },
      {
        "name": "new_merge_request",
        "type": "boolean",
        "required": false,
        "description": "Enable/disable this notification"
      },
      {
        "name": "push_to_merge_request",
        "type": "boolean",
        "required": false,
        "description": "Enable/disable this notification"
      },
      {
        "name": "reopen_merge_request",
        "type": "boolean",
        "required": false,
        "description": "Enable/disable this notification"
      },
      {
        "name": "close_merge_request",
        "type": "boolean",
        "required": false,
        "description": "Enable/disable this notification"
      },
      {
        "name": "reassign_merge_request",
        "type": "boolean",
        "required": false,
        "description": "Enable/disable this notification"
      },
      {
        "name": "merge_merge_request",
        "type": "boolean",
        "required": false,
        "description": "Enable/disable this notification"
      },
      {
        "name": "failed_pipeline",
        "type": "boolean",
        "required": false,
        "description": "Enable/disable this notification"
      },
      {
        "name": "fixed_pipeline",
        "type": "boolean",
        "required": false,
        "description": "Enable/disable this notification"
      },
      {
        "name": "success_pipeline",
        "type": "boolean",
        "required": false,
        "description": "Enable/disable this notification"
      },
      {
        "name": "moved_project",
        "type": "boolean",
        "required": false,
        "description": "Enable/disable this notification (Introduced in GitLab 13.3)"
      },
      {
        "name": "new_epic",
        "type": "boolean",
        "required": false,
        "description": "Enable/disable this notification (Introduced in GitLab 11.3) (ULTIMATE)"
      }
    ]
  }
]