[
  {
    "name": "Update existing submodule reference in repository",
    "description": "In some workflows, especially automated ones, it can be useful to update a submodule's reference to keep up to date other projects that use it. This endpoint allows you to update a [Git submodule](https://git-scm.com/book/en/v2/Git-Tools-Submodules) reference in a specific branch.",
    "method": "PUT",
    "path": "/projects/:id/repository/submodules/:submodule",
    "params": [
      {
        "name": "id",
        "type": "integer/string",
        "required": true,
        "description": "The ID or URL-encoded path of the project owned by the authenticated user"
      },
      {
        "name": "submodule",
        "type": "string",
        "required": true,
        "description": "URL-encoded full path to the submodule. For example, lib%2Fclass%2Erb"
      },
      {
        "name": "branch",
        "type": "string",
        "required": true,
        "description": "Name of the branch to commit into"
      },
      {
        "name": "commit_sha",
        "type": "string",
        "required": true,
        "description": "Full commit SHA to update the submodule to"
      },
      {
        "name": "commit_message",
        "type": "string",
        "required": false,
        "description": "Commit message. If no message is provided, a default one will be set"
      }
    ]
  }
]