[
  {
    "name": "List project issue milestone events",
    "description": "Gets a list of all milestone events for a single issue.",
    "method": "GET",
    "path": "/projects/:id/issues/:issue_iid/resource_milestone_events",
    "params": [
      {
        "name": "id",
        "type": "integer/string",
        "required": true,
        "description": "The ID or URL-encoded path of the project"
      },
      {
        "name": "issue_iid",
        "type": "integer",
        "required": true,
        "description": "The IID of an issue"
      }
    ]
  },
  {
    "name": "Get single issue milestone event",
    "description": "Returns a single milestone event for a specific project issue",
    "method": "GET",
    "path": "/projects/:id/issues/:issue_iid/resource_milestone_events/:resource_milestone_event_id",
    "params": [
      {
        "name": "id",
        "type": "integer/string",
        "required": true,
        "description": "The ID or URL-encoded path of the project"
      },
      {
        "name": "issue_iid",
        "type": "integer",
        "required": true,
        "description": "The IID of an issue"
      },
      {
        "name": "resource_milestone_event_id",
        "type": "integer",
        "required": true,
        "description": "The ID of a milestone event"
      }
    ]
  },
  {
    "name": "List project merge request milestone events",
    "description": "Gets a list of all milestone events for a single merge request.",
    "method": "GET",
    "path": "/projects/:id/merge_requests/:merge_request_iid/resource_milestone_events",
    "params": [
      {
        "name": "id",
        "type": "integer/string",
        "required": true,
        "description": "The ID or URL-encoded path of the project"
      },
      {
        "name": "merge_request_iid",
        "type": "integer",
        "required": true,
        "description": "The IID of a merge request"
      }
    ]
  },
  {
    "name": "Get single merge request milestone event",
    "description": "Returns a single milestone event for a specific project merge request",
    "method": "GET",
    "path": "/projects/:id/merge_requests/:merge_request_iid/resource_milestone_events/:resource_milestone_event_id",
    "params": [
      {
        "name": "id",
        "type": "integer/string",
        "required": true,
        "description": "The ID or URL-encoded path of the project"
      },
      {
        "name": "merge_request_iid",
        "type": "integer",
        "required": true,
        "description": "The IID of a merge request"
      },
      {
        "name": "resource_milestone_event_id",
        "type": "integer",
        "required": true,
        "description": "The ID of a milestone event"
      }
    ]
  }
]