[
  {
    "name": "List project issue label events",
    "description": "Gets a list of all label events for a single issue.",
    "method": "GET",
    "path": "/projects/:id/issues/:issue_iid/resource_label_events",
    "params": [
      {
        "name": "id",
        "type": "integer/string",
        "required": true,
        "description": "The ID or URL-encoded path of the project"
      },
      {
        "name": "issue_iid",
        "type": "integer",
        "required": true,
        "description": "The IID of an issue"
      }
    ]
  },
  {
    "name": "Get single issue label event",
    "description": "Returns a single label event for a specific project issue",
    "method": "GET",
    "path": "/projects/:id/issues/:issue_iid/resource_label_events/:resource_label_event_id",
    "params": [
      {
        "name": "id",
        "type": "integer/string",
        "required": true,
        "description": "The ID or URL-encoded path of the project"
      },
      {
        "name": "issue_iid",
        "type": "integer",
        "required": true,
        "description": "The IID of an issue"
      },
      {
        "name": "resource_label_event_id",
        "type": "integer",
        "required": true,
        "description": "The ID of a label event"
      }
    ]
  },
  {
    "name": "List group epic label events",
    "description": "Gets a list of all label events for a single epic.",
    "method": "GET",
    "path": "/groups/:id/epics/:epic_id/resource_label_events",
    "params": [
      {
        "name": "id",
        "type": "integer/string",
        "required": true,
        "description": "The ID or URL-encoded path of the group"
      },
      {
        "name": "epic_id",
        "type": "integer",
        "required": true,
        "description": "The ID of an epic"
      }
    ]
  },
  {
    "name": "Get single epic label event",
    "description": "Returns a single label event for a specific group epic",
    "method": "GET",
    "path": "/groups/:id/epics/:epic_id/resource_label_events/:resource_label_event_id",
    "params": [
      {
        "name": "id",
        "type": "integer/string",
        "required": true,
        "description": "The ID or URL-encoded path of the group"
      },
      {
        "name": "epic_id",
        "type": "integer",
        "required": true,
        "description": "The ID of an epic"
      },
      {
        "name": "resource_label_event_id",
        "type": "integer",
        "required": true,
        "description": "The ID of a label event"
      }
    ]
  },
  {
    "name": "List project merge request label events",
    "description": "Gets a list of all label events for a single merge request.",
    "method": "GET",
    "path": "/projects/:id/merge_requests/:merge_request_iid/resource_label_events",
    "params": [
      {
        "name": "id",
        "type": "integer/string",
        "required": true,
        "description": "The ID or URL-encoded path of the project"
      },
      {
        "name": "merge_request_iid",
        "type": "integer",
        "required": true,
        "description": "The IID of a merge request"
      }
    ]
  },
  {
    "name": "Get single merge request label event",
    "description": "Returns a single label event for a specific project merge request",
    "method": "GET",
    "path": "/projects/:id/merge_requests/:merge_request_iid/resource_label_events/:resource_label_event_id",
    "params": [
      {
        "name": "id",
        "type": "integer/string",
        "required": true,
        "description": "The ID or URL-encoded path of the project"
      },
      {
        "name": "merge_request_iid",
        "type": "integer",
        "required": true,
        "description": "The IID of a merge request"
      },
      {
        "name": "resource_label_event_id",
        "type": "integer",
        "required": true,
        "description": "The ID of a label event"
      }
    ]
  }
]