[
  {
    "name": "List project issue state events",
    "description": "Gets a list of all state events for a single issue.",
    "method": "GET",
    "path": "/projects/:id/issues/:issue_iid/resource_state_events",
    "params": [
      {
        "name": "id",
        "type": "integer/string",
        "required": true,
        "description": "The ID or URL-encoded path of the project"
      },
      {
        "name": "issue_iid",
        "type": "integer",
        "required": true,
        "description": "The IID of an issue"
      }
    ]
  },
  {
    "name": "Get single issue state event",
    "description": "Returns a single state event for a specific project issue",
    "method": "GET",
    "path": "/projects/:id/issues/:issue_iid/resource_state_events/:resource_state_event_id",
    "params": [
      {
        "name": "id",
        "type": "integer/string",
        "required": true,
        "description": "The ID or URL-encoded path of the project"
      },
      {
        "name": "issue_iid",
        "type": "integer",
        "required": true,
        "description": "The IID of an issue"
      },
      {
        "name": "resource_state_event_id",
        "type": "integer",
        "required": true,
        "description": "The ID of a state event"
      }
    ]
  },
  {
    "name": "List project merge request state events",
    "description": "Gets a list of all state events for a single merge request.",
    "method": "GET",
    "path": "/projects/:id/merge_requests/:merge_request_iid/resource_state_events",
    "params": [
      {
        "name": "id",
        "type": "integer/string",
        "required": true,
        "description": "The ID or URL-encoded path of the project"
      },
      {
        "name": "merge_request_iid",
        "type": "integer",
        "required": true,
        "description": "The IID of a merge request"
      }
    ]
  },
  {
    "name": "Get single merge request state event",
    "description": "Returns a single state event for a specific project merge request",
    "method": "GET",
    "path": "/projects/:id/merge_requests/:merge_request_iid/resource_state_events/:resource_state_event_id",
    "params": [
      {
        "name": "id",
        "type": "integer/string",
        "required": true,
        "description": "The ID or URL-encoded path of the project"
      },
      {
        "name": "merge_request_iid",
        "type": "integer",
        "required": true,
        "description": "The IID of a merge request"
      },
      {
        "name": "resource_state_event_id",
        "type": "integer",
        "required": true,
        "description": "The ID of a state event"
      }
    ]
  }
]