[
  {
    "name": "List all active services",
    "description": "> [Introduced](https://gitlab.com/gitlab-org/gitlab/-/merge_requests/21330) in GitLab 12.7.  Get a list of all active project services.",
    "method": "GET",
    "path": "/projects/:id/services",
    "params": []
  },
  {
    "name": "Create/Edit Asana service",
    "description": "Set Asana service for a project.  > This service adds commit messages as comments to Asana tasks. Once enabled, commit messages are checked for Asana task URLs (for example, `https://app.asana.com/0/123456/987654`) or task IDs starting with # (for example, `#987654`). Every task ID found will get the commit comment added to it. You can also close a task with a message containing: `fix #123456`. You can find your API Keys here: <https://developers.asana.com/docs/#authentication-basics>.",
    "method": "PUT",
    "path": "/projects/:id/services/asana",
    "params": [
      {
        "parameter": "api_key",
        "type": "string",
        "description": "User API token. User must have access to task, all comments will be attributed to this user."
      },
      {
        "parameter": "restrict_to_branch",
        "type": "string",
        "description": "Comma-separated list of branches which will be automatically inspected. Leave blank to include all branches."
      },
      {
        "parameter": "push_events",
        "type": "boolean",
        "description": "Enable notifications for push events"
      }
    ]
  },
  {
    "name": "Delete Asana service",
    "description": "Delete Asana service for a project.",
    "method": "DELETE",
    "path": "/projects/:id/services/asana",
    "params": []
  },
  {
    "name": "Get Asana service settings",
    "description": "Get Asana service settings for a project.",
    "method": "GET",
    "path": "/projects/:id/services/asana",
    "params": []
  },
  {
    "name": "Create/Edit Assembla service",
    "description": "Set Assembla service for a project.",
    "method": "PUT",
    "path": "/projects/:id/services/assembla",
    "params": [
      {
        "parameter": "token",
        "type": "string",
        "description": "The authentication token"
      },
      {
        "parameter": "subdomain",
        "type": "string",
        "description": "The subdomain setting"
      },
      {
        "parameter": "push_events",
        "type": "boolean",
        "description": "Enable notifications for push events"
      }
    ]
  },
  {
    "name": "Delete Assembla service",
    "description": "Delete Assembla service for a project.",
    "method": "DELETE",
    "path": "/projects/:id/services/assembla",
    "params": []
  },
  {
    "name": "Get Assembla service settings",
    "description": "Get Assembla service settings for a project.",
    "method": "GET",
    "path": "/projects/:id/services/assembla",
    "params": []
  },
  {
    "name": "Create/Edit Atlassian Bamboo CI service",
    "description": "Set Atlassian Bamboo CI service for a project.  > You must set up automatic revision labeling and a repository trigger in Bamboo.",
    "method": "PUT",
    "path": "/projects/:id/services/bamboo",
    "params": [
      {
        "parameter": "bamboo_url",
        "type": "string",
        "description": "Bamboo root URL. For example, https://bamboo.example.com."
      },
      {
        "parameter": "build_key",
        "type": "string",
        "description": "Bamboo build plan key like KEY"
      },
      {
        "parameter": "username",
        "type": "string",
        "description": "A user with API access, if applicable"
      },
      {
        "parameter": "password",
        "type": "string",
        "description": "Password of the user"
      },
      {
        "parameter": "push_events",
        "type": "boolean",
        "description": "Enable notifications for push events"
      }
    ]
  },
  {
    "name": "Delete Atlassian Bamboo CI service",
    "description": "Delete Atlassian Bamboo CI service for a project.",
    "method": "DELETE",
    "path": "/projects/:id/services/bamboo",
    "params": []
  },
  {
    "name": "Get Atlassian Bamboo CI service settings",
    "description": "Get Atlassian Bamboo CI service settings for a project.",
    "method": "GET",
    "path": "/projects/:id/services/bamboo",
    "params": []
  },
  {
    "name": "Create/Edit Bugzilla service",
    "description": "Set Bugzilla service for a project.",
    "method": "PUT",
    "path": "/projects/:id/services/bugzilla",
    "params": [
      {
        "parameter": "new_issue_url",
        "type": "string",
        "description": "New Issue URL"
      },
      {
        "parameter": "issues_url",
        "type": "string",
        "description": "Issue URL"
      },
      {
        "parameter": "project_url",
        "type": "string",
        "description": "Project URL"
      },
      {
        "parameter": "description",
        "type": "string",
        "description": "Description"
      },
      {
        "parameter": "title",
        "type": "string",
        "description": "Title"
      },
      {
        "parameter": "push_events",
        "type": "boolean",
        "description": "Enable notifications for push events"
      }
    ]
  },
  {
    "name": "Delete Bugzilla Service",
    "description": "Delete Bugzilla service for a project.",
    "method": "DELETE",
    "path": "/projects/:id/services/bugzilla",
    "params": []
  },
  {
    "name": "Get Bugzilla Service Settings",
    "description": "Get Bugzilla service settings for a project.",
    "method": "GET",
    "path": "/projects/:id/services/bugzilla",
    "params": []
  },
  {
    "name": "Create/Edit Buildkite service",
    "description": "Set Buildkite service for a project.",
    "method": "PUT",
    "path": "/projects/:id/services/buildkite",
    "params": [
      {
        "parameter": "token",
        "type": "string",
        "description": "Buildkite project GitLab token"
      },
      {
        "parameter": "project_url",
        "type": "string",
        "description": "Pipeline URL. For example, https://buildkite.com/example/pipeline"
      },
      {
        "parameter": "enable_ssl_verification",
        "type": "boolean",
        "description": "DEPRECATED: This parameter has no effect since SSL verification will always be enabled"
      },
      {
        "parameter": "push_events",
        "type": "boolean",
        "description": "Enable notifications for push events"
      }
    ]
  },
  {
    "name": "Delete Buildkite service",
    "description": "Delete Buildkite service for a project.",
    "method": "DELETE",
    "path": "/projects/:id/services/buildkite",
    "params": []
  },
  {
    "name": "Get Buildkite service settings",
    "description": "Get Buildkite service settings for a project.",
    "method": "GET",
    "path": "/projects/:id/services/buildkite",
    "params": []
  },
  {
    "name": "Create/Edit Campfire service",
    "description": "Set Campfire service for a project.",
    "method": "PUT",
    "path": "/projects/:id/services/campfire",
    "params": [
      {
        "parameter": "token",
        "type": "string",
        "description": "Campfire token"
      },
      {
        "parameter": "subdomain",
        "type": "string",
        "description": "Campfire subdomain"
      },
      {
        "parameter": "room",
        "type": "string",
        "description": "Campfire room"
      },
      {
        "parameter": "push_events",
        "type": "boolean",
        "description": "Enable notifications for push events"
      }
    ]
  },
  {
    "name": "Delete Campfire service",
    "description": "Delete Campfire service for a project.",
    "method": "DELETE",
    "path": "/projects/:id/services/campfire",
    "params": []
  },
  {
    "name": "Get Campfire service settings",
    "description": "Get Campfire service settings for a project.",
    "method": "GET",
    "path": "/projects/:id/services/campfire",
    "params": []
  },
  {
    "name": "Create/Edit Unify Circuit service",
    "description": "Set Unify Circuit service for a project.",
    "method": "PUT",
    "path": "/projects/:id/services/unify-circuit",
    "params": [
      {
        "parameter": "webhook",
        "type": "string",
        "description": "The Unify Circuit webhook. For example, https://circuit.com/rest/v2/webhooks/incoming/...."
      },
      {
        "parameter": "notify_only_broken_pipelines",
        "type": "boolean",
        "description": "Send notifications for broken pipelines"
      },
      {
        "parameter": "branches_to_be_notified",
        "type": "string",
        "description": "Branches to send notifications for. Valid options are \"all\", \"default\", \"protected\", and \"default_and_protected\""
      },
      {
        "parameter": "push_events",
        "type": "boolean",
        "description": "Enable notifications for push events"
      },
      {
        "parameter": "issues_events",
        "type": "boolean",
        "description": "Enable notifications for issue events"
      },
      {
        "parameter": "confidential_issues_events",
        "type": "boolean",
        "description": "Enable notifications for confidential issue events"
      },
      {
        "parameter": "merge_requests_events",
        "type": "boolean",
        "description": "Enable notifications for merge request events"
      },
      {
        "parameter": "tag_push_events",
        "type": "boolean",
        "description": "Enable notifications for tag push events"
      },
      {
        "parameter": "note_events",
        "type": "boolean",
        "description": "Enable notifications for note events"
      },
      {
        "parameter": "confidential_note_events",
        "type": "boolean",
        "description": "Enable notifications for confidential note events"
      },
      {
        "parameter": "pipeline_events",
        "type": "boolean",
        "description": "Enable notifications for pipeline events"
      },
      {
        "parameter": "wiki_page_events",
        "type": "boolean",
        "description": "Enable notifications for wiki page events"
      }
    ]
  },
  {
    "name": "Delete Unify Circuit service",
    "description": "Delete Unify Circuit service for a project.",
    "method": "DELETE",
    "path": "/projects/:id/services/unify-circuit",
    "params": []
  },
  {
    "name": "Get Unify Circuit service settings",
    "description": "Get Unify Circuit service settings for a project.",
    "method": "GET",
    "path": "/projects/:id/services/unify-circuit",
    "params": []
  },
  {
    "name": "Create/Edit Webex Teams service",
    "description": "Set Webex Teams service for a project.",
    "method": "PUT",
    "path": "/projects/:id/services/webex-teams",
    "params": [
      {
        "parameter": "webhook",
        "type": "string",
        "description": "The Webex Teams webhook. For example, https://api.ciscospark.com/v1/webhooks/incoming/...."
      },
      {
        "parameter": "notify_only_broken_pipelines",
        "type": "boolean",
        "description": "Send notifications for broken pipelines"
      },
      {
        "parameter": "branches_to_be_notified",
        "type": "string",
        "description": "Branches to send notifications for. Valid options are \"all\", \"default\", \"protected\", and \"default_and_protected\""
      },
      {
        "parameter": "push_events",
        "type": "boolean",
        "description": "Enable notifications for push events"
      },
      {
        "parameter": "issues_events",
        "type": "boolean",
        "description": "Enable notifications for issue events"
      },
      {
        "parameter": "confidential_issues_events",
        "type": "boolean",
        "description": "Enable notifications for confidential issue events"
      },
      {
        "parameter": "merge_requests_events",
        "type": "boolean",
        "description": "Enable notifications for merge request events"
      },
      {
        "parameter": "tag_push_events",
        "type": "boolean",
        "description": "Enable notifications for tag push events"
      },
      {
        "parameter": "note_events",
        "type": "boolean",
        "description": "Enable notifications for note events"
      },
      {
        "parameter": "confidential_note_events",
        "type": "boolean",
        "description": "Enable notifications for confidential note events"
      },
      {
        "parameter": "pipeline_events",
        "type": "boolean",
        "description": "Enable notifications for pipeline events"
      },
      {
        "parameter": "wiki_page_events",
        "type": "boolean",
        "description": "Enable notifications for wiki page events"
      }
    ]
  },
  {
    "name": "Delete Webex Teams service",
    "description": "Delete Webex Teams service for a project.",
    "method": "DELETE",
    "path": "/projects/:id/services/webex-teams",
    "params": []
  },
  {
    "name": "Get Webex Teams service settings",
    "description": "Get Webex Teams service settings for a project.",
    "method": "GET",
    "path": "/projects/:id/services/webex-teams",
    "params": []
  },
  {
    "name": "Create/Edit Custom Issue Tracker service",
    "description": "Set Custom Issue Tracker service for a project.",
    "method": "PUT",
    "path": "/projects/:id/services/custom-issue-tracker",
    "params": [
      {
        "parameter": "new_issue_url",
        "type": "string",
        "description": "New Issue URL"
      },
      {
        "parameter": "issues_url",
        "type": "string",
        "description": "Issue URL"
      },
      {
        "parameter": "project_url",
        "type": "string",
        "description": "Project URL"
      },
      {
        "parameter": "description",
        "type": "string",
        "description": "Description"
      },
      {
        "parameter": "title",
        "type": "string",
        "description": "Title"
      },
      {
        "parameter": "push_events",
        "type": "boolean",
        "description": "Enable notifications for push events"
      }
    ]
  },
  {
    "name": "Delete Custom Issue Tracker service",
    "description": "Delete Custom Issue Tracker service for a project.",
    "method": "DELETE",
    "path": "/projects/:id/services/custom-issue-tracker",
    "params": []
  },
  {
    "name": "Get Custom Issue Tracker service settings",
    "description": "Get Custom Issue Tracker service settings for a project.",
    "method": "GET",
    "path": "/projects/:id/services/custom-issue-tracker",
    "params": []
  },
  {
    "name": "Create/Edit Drone CI service",
    "description": "Set Drone CI service for a project.",
    "method": "PUT",
    "path": "/projects/:id/services/drone-ci",
    "params": [
      {
        "parameter": "token",
        "type": "string",
        "description": "Drone CI project specific token"
      },
      {
        "parameter": "drone_url",
        "type": "string",
        "description": "http://drone.example.com"
      },
      {
        "parameter": "enable_ssl_verification",
        "type": "boolean",
        "description": "Enable SSL verification"
      },
      {
        "parameter": "push_events",
        "type": "boolean",
        "description": "Enable notifications for push events"
      },
      {
        "parameter": "merge_requests_events",
        "type": "boolean",
        "description": "Enable notifications for merge request events"
      },
      {
        "parameter": "tag_push_events",
        "type": "boolean",
        "description": "Enable notifications for tag push events"
      }
    ]
  },
  {
    "name": "Delete Drone CI service",
    "description": "Delete Drone CI service for a project.",
    "method": "DELETE",
    "path": "/projects/:id/services/drone-ci",
    "params": []
  },
  {
    "name": "Get Drone CI service settings",
    "description": "Get Drone CI service settings for a project.",
    "method": "GET",
    "path": "/projects/:id/services/drone-ci",
    "params": []
  },
  {
    "name": "Create/Edit Emails on push service",
    "description": "Set Emails on push service for a project.",
    "method": "PUT",
    "path": "/projects/:id/services/emails-on-push",
    "params": [
      {
        "parameter": "recipients",
        "type": "string",
        "description": "Emails separated by whitespace"
      },
      {
        "parameter": "disable_diffs",
        "type": "boolean",
        "description": "Disable code diffs"
      },
      {
        "parameter": "send_from_committer_email",
        "type": "boolean",
        "description": "Send from committer"
      },
      {
        "parameter": "push_events",
        "type": "boolean",
        "description": "Enable notifications for push events"
      },
      {
        "parameter": "tag_push_events",
        "type": "boolean",
        "description": "Enable notifications for tag push events"
      },
      {
        "parameter": "branches_to_be_notified",
        "type": "string",
        "description": "Branches to send notifications for. Valid options are \"all\", \"default\", \"protected\", and \"default_and_protected\". Notifications will be always fired for tag pushes."
      }
    ]
  },
  {
    "name": "Delete Emails on push service",
    "description": "Delete Emails on push service for a project.",
    "method": "DELETE",
    "path": "/projects/:id/services/emails-on-push",
    "params": []
  },
  {
    "name": "Get Emails on push service settings",
    "description": "Get Emails on push service settings for a project.",
    "method": "GET",
    "path": "/projects/:id/services/emails-on-push",
    "params": []
  },
  {
    "name": "Create/Edit Confluence service",
    "description": "Set Confluence service for a project.",
    "method": "PUT",
    "path": "/projects/:id/services/confluence",
    "params": [
      {
        "parameter": "confluence_url",
        "type": "string",
        "description": "The URL of the Confluence Cloud Workspace hosted on atlassian.net."
      }
    ]
  },
  {
    "name": "Delete Confluence service",
    "description": "Delete Confluence service for a project.",
    "method": "DELETE",
    "path": "/projects/:id/services/confluence",
    "params": []
  },
  {
    "name": "Get Confluence service settings",
    "description": "Get Confluence service settings for a project.",
    "method": "GET",
    "path": "/projects/:id/services/confluence",
    "params": []
  },
  {
    "name": "Create/Edit External Wiki service",
    "description": "Set External Wiki service for a project.",
    "method": "PUT",
    "path": "/projects/:id/services/external-wiki",
    "params": [
      {
        "parameter": "external_wiki_url",
        "type": "string",
        "description": "The URL of the external Wiki"
      }
    ]
  },
  {
    "name": "Delete External Wiki service",
    "description": "Delete External Wiki service for a project.",
    "method": "DELETE",
    "path": "/projects/:id/services/external-wiki",
    "params": []
  },
  {
    "name": "Get External Wiki service settings",
    "description": "Get External Wiki service settings for a project.",
    "method": "GET",
    "path": "/projects/:id/services/external-wiki",
    "params": []
  },
  {
    "name": "Create/Edit Flowdock service",
    "description": "Set Flowdock service for a project.",
    "method": "PUT",
    "path": "/projects/:id/services/flowdock",
    "params": [
      {
        "parameter": "token",
        "type": "string",
        "description": "Flowdock Git source token"
      },
      {
        "parameter": "push_events",
        "type": "boolean",
        "description": "Enable notifications for push events"
      }
    ]
  },
  {
    "name": "Delete Flowdock service",
    "description": "Delete Flowdock service for a project.",
    "method": "DELETE",
    "path": "/projects/:id/services/flowdock",
    "params": []
  },
  {
    "name": "Get Flowdock service settings",
    "description": "Get Flowdock service settings for a project.",
    "method": "GET",
    "path": "/projects/:id/services/flowdock",
    "params": []
  },
  {
    "name": "Create/Edit GitHub service",
    "description": "Set GitHub service for a project.",
    "method": "PUT",
    "path": "/projects/:id/services/github",
    "params": [
      {
        "parameter": "token",
        "type": "string",
        "description": "GitHub API token with repo:status OAuth scope"
      },
      {
        "parameter": "repository_url",
        "type": "string",
        "description": "GitHub repository URL"
      },
      {
        "parameter": "static_context",
        "type": "boolean",
        "description": "Append instance name instead of branch to status check name"
      }
    ]
  },
  {
    "name": "Delete GitHub service",
    "description": "Delete GitHub service for a project.",
    "method": "DELETE",
    "path": "/projects/:id/services/github",
    "params": []
  },
  {
    "name": "Get GitHub service settings",
    "description": "Get GitHub service settings for a project.",
    "method": "GET",
    "path": "/projects/:id/services/github",
    "params": []
  },
  {
    "name": "Create/Edit Hangouts Chat service",
    "description": "Set Hangouts Chat service for a project.",
    "method": "PUT",
    "path": "/projects/:id/services/hangouts-chat",
    "params": [
      {
        "parameter": "webhook",
        "type": "string",
        "description": "The Hangouts Chat webhook. For example, https://chat.googleapis.com/v1/spaces...."
      },
      {
        "parameter": "notify_only_broken_pipelines",
        "type": "boolean",
        "description": "Send notifications for broken pipelines"
      },
      {
        "parameter": "notify_only_default_branch",
        "type": "boolean",
        "description": "DEPRECATED: This parameter has been replaced with branches_to_be_notified"
      },
      {
        "parameter": "branches_to_be_notified",
        "type": "string",
        "description": "Branches to send notifications for. Valid options are \"all\", \"default\", \"protected\", and \"default_and_protected\""
      },
      {
        "parameter": "push_events",
        "type": "boolean",
        "description": "Enable notifications for push events"
      },
      {
        "parameter": "issues_events",
        "type": "boolean",
        "description": "Enable notifications for issue events"
      },
      {
        "parameter": "confidential_issues_events",
        "type": "boolean",
        "description": "Enable notifications for confidential issue events"
      },
      {
        "parameter": "merge_requests_events",
        "type": "boolean",
        "description": "Enable notifications for merge request events"
      },
      {
        "parameter": "tag_push_events",
        "type": "boolean",
        "description": "Enable notifications for tag push events"
      },
      {
        "parameter": "note_events",
        "type": "boolean",
        "description": "Enable notifications for note events"
      },
      {
        "parameter": "confidential_note_events",
        "type": "boolean",
        "description": "Enable notifications for confidential note events"
      },
      {
        "parameter": "pipeline_events",
        "type": "boolean",
        "description": "Enable notifications for pipeline events"
      },
      {
        "parameter": "wiki_page_events",
        "type": "boolean",
        "description": "Enable notifications for wiki page events"
      }
    ]
  },
  {
    "name": "Delete Hangouts Chat service",
    "description": "Delete Hangouts Chat service for a project.",
    "method": "DELETE",
    "path": "/projects/:id/services/hangouts-chat",
    "params": []
  },
  {
    "name": "Get Hangouts Chat service settings",
    "description": "Get Hangouts Chat service settings for a project.",
    "method": "GET",
    "path": "/projects/:id/services/hangouts-chat",
    "params": []
  },
  {
    "name": "Create/Edit HipChat service",
    "description": "Set HipChat service for a project.",
    "method": "PUT",
    "path": "/projects/:id/services/hipchat",
    "params": [
      {
        "parameter": "token",
        "type": "string",
        "description": "Room token"
      },
      {
        "parameter": "color",
        "type": "string",
        "description": "The room color"
      },
      {
        "parameter": "notify",
        "type": "boolean",
        "description": "Enable notifications"
      },
      {
        "parameter": "room",
        "type": "string",
        "description": "Room name or ID"
      },
      {
        "parameter": "api_version",
        "type": "string",
        "description": "Leave blank for default (v2)"
      },
      {
        "parameter": "server",
        "type": "string",
        "description": "Leave blank for default. For example, https://hipchat.example.com."
      },
      {
        "parameter": "push_events",
        "type": "boolean",
        "description": "Enable notifications for push events"
      },
      {
        "parameter": "issues_events",
        "type": "boolean",
        "description": "Enable notifications for issue events"
      },
      {
        "parameter": "confidential_issues_events",
        "type": "boolean",
        "description": "Enable notifications for confidential issue events"
      },
      {
        "parameter": "merge_requests_events",
        "type": "boolean",
        "description": "Enable notifications for merge request events"
      },
      {
        "parameter": "tag_push_events",
        "type": "boolean",
        "description": "Enable notifications for tag push events"
      },
      {
        "parameter": "note_events",
        "type": "boolean",
        "description": "Enable notifications for note events"
      },
      {
        "parameter": "confidential_note_events",
        "type": "boolean",
        "description": "Enable notifications for confidential note events"
      },
      {
        "parameter": "pipeline_events",
        "type": "boolean",
        "description": "Enable notifications for pipeline events"
      }
    ]
  },
  {
    "name": "Delete HipChat service",
    "description": "Delete HipChat service for a project.",
    "method": "DELETE",
    "path": "/projects/:id/services/hipchat",
    "params": []
  },
  {
    "name": "Get HipChat service settings",
    "description": "Get HipChat service settings for a project.",
    "method": "GET",
    "path": "/projects/:id/services/hipchat",
    "params": []
  },
  {
    "name": "Create/Edit Irker (IRC gateway) service",
    "description": "Set Irker (IRC gateway) service for a project.  > NOTE: Irker does NOT have built-in authentication, which makes it vulnerable to spamming IRC channels if it is hosted outside of a firewall. Please make sure you run the daemon within a secured network to prevent abuse. For more details, read: <http://www.catb.org/~esr/irker/security.html>.",
    "method": "PUT",
    "path": "/projects/:id/services/irker",
    "params": [
      {
        "parameter": "recipients",
        "type": "string",
        "description": "Recipients/channels separated by whitespaces"
      },
      {
        "parameter": "default_irc_uri",
        "type": "string",
        "description": "irc://irc.network.net:6697/"
      },
      {
        "parameter": "server_host",
        "type": "string",
        "description": "localhost"
      },
      {
        "parameter": "server_port",
        "type": "integer",
        "description": "6659"
      },
      {
        "parameter": "colorize_messages",
        "type": "boolean",
        "description": "Colorize messages"
      },
      {
        "parameter": "push_events",
        "type": "boolean",
        "description": "Enable notifications for push events"
      }
    ]
  },
  {
    "name": "Delete Irker (IRC gateway) service",
    "description": "Delete Irker (IRC gateway) service for a project.",
    "method": "DELETE",
    "path": "/projects/:id/services/irker",
    "params": []
  },
  {
    "name": "Get Irker (IRC gateway) service settings",
    "description": "Get Irker (IRC gateway) service settings for a project.",
    "method": "GET",
    "path": "/projects/:id/services/irker",
    "params": []
  },
  {
    "name": "Get Jira service settings",
    "description": "Get Jira service settings for a project.",
    "method": "GET",
    "path": "/projects/:id/services/jira",
    "params": []
  },
  {
    "name": "Create/Edit Jira service",
    "description": "Set Jira service for a project.  > Starting with GitLab 8.14, `api_url`, `issues_url`, `new_issue_url` and > `project_url` are replaced by `url`. If you are using an > older version, [follow this documentation](https://gitlab.com/gitlab-org/gitlab/blob/8-13-stable-ee/doc/api/services.md#jira).",
    "method": "PUT",
    "path": "/projects/:id/services/jira",
    "params": [
      {
        "parameter": "url",
        "type": "string",
        "required": true,
        "description": "The URL to the Jira project which is being linked to this GitLab project. For example, https://jira.example.com."
      },
      {
        "parameter": "api_url",
        "type": "string",
        "required": false,
        "description": "The base URL to the Jira instance API. Web URL value will be used if not set. For example, https://jira-api.example.com."
      },
      {
        "parameter": "username",
        "type": "string",
        "required": true,
        "description": "The username of the user created to be used with GitLab/Jira."
      },
      {
        "parameter": "password",
        "type": "string",
        "required": true,
        "description": "The password of the user created to be used with GitLab/Jira."
      },
      {
        "parameter": "active",
        "type": "boolean",
        "required": false,
        "description": "Activates or deactivates the service. Defaults to false (deactivated)."
      },
      {
        "parameter": "jira_issue_transition_id",
        "type": "string",
        "required": false,
        "description": "The ID of a transition that moves issues to a closed state. You can find this number under the Jira workflow administration (Administration > Issues > Workflows) by selecting View under Operations of the desired workflow of your project. The ID of each state can be found inside the parenthesis of each transition name under the transitions ID column. By default, this ID is set to 2."
      },
      {
        "parameter": "commit_events",
        "type": "boolean",
        "description": "Enable notifications for commit events"
      },
      {
        "parameter": "merge_requests_events",
        "type": "boolean",
        "description": "Enable notifications for merge request events"
      },
      {
        "parameter": "comment_on_event_enabled",
        "type": "boolean",
        "description": "Enable comments inside Jira issues on each GitLab event (commit / merge request)"
      }
    ]
  },
  {
    "name": "Delete Jira service",
    "description": "Remove all previously Jira settings from a project.",
    "method": "DELETE",
    "path": "/projects/:id/services/jira",
    "params": []
  },
  {
    "name": "Get Slack slash command service settings",
    "description": "Get Slack slash command service settings for a project.",
    "method": "GET",
    "path": "/projects/:id/services/slack-slash-commands",
    "params": []
  },
  {
    "name": "Create/Edit Slack slash command service",
    "description": "Set Slack slash command for a project.",
    "method": "PUT",
    "path": "/projects/:id/services/slack-slash-commands",
    "params": [
      {
        "parameter": "token",
        "type": "string",
        "required": true,
        "description": "The Slack token"
      }
    ]
  },
  {
    "name": "Delete Slack slash command service",
    "description": "Delete Slack slash command service for a project.",
    "method": "DELETE",
    "path": "/projects/:id/services/slack-slash-commands",
    "params": []
  },
  {
    "name": "Get Mattermost slash command service settings",
    "description": "Get Mattermost slash command service settings for a project.",
    "method": "GET",
    "path": "/projects/:id/services/mattermost-slash-commands",
    "params": []
  },
  {
    "name": "Create/Edit Mattermost slash command service",
    "description": "Set Mattermost slash command for a project.",
    "method": "PUT",
    "path": "/projects/:id/services/mattermost-slash-commands",
    "params": [
      {
        "parameter": "token",
        "type": "string",
        "required": true,
        "description": "The Mattermost token"
      },
      {
        "parameter": "username",
        "type": "string",
        "required": false,
        "description": "The username to use to post the message"
      }
    ]
  },
  {
    "name": "Delete Mattermost slash command service",
    "description": "Delete Mattermost slash command service for a project.",
    "method": "DELETE",
    "path": "/projects/:id/services/mattermost-slash-commands",
    "params": []
  },
  {
    "name": "Create/Edit Packagist service",
    "description": "Set Packagist service for a project.",
    "method": "PUT",
    "path": "/projects/:id/services/packagist",
    "params": [
      {
        "parameter": "username",
        "type": "string",
        "required": true,
        "description": "The username of a Packagist account"
      },
      {
        "parameter": "token",
        "type": "string",
        "required": true,
        "description": "API token to the Packagist server"
      },
      {
        "parameter": "server",
        "type": "boolean",
        "required": false,
        "description": "URL of the Packagist server. Leave blank for default: https://packagist.org"
      },
      {
        "parameter": "push_events",
        "type": "boolean",
        "description": "Enable notifications for push events"
      },
      {
        "parameter": "merge_requests_events",
        "type": "boolean",
        "description": "Enable notifications for merge request events"
      },
      {
        "parameter": "tag_push_events",
        "type": "boolean",
        "description": "Enable notifications for tag push events"
      }
    ]
  },
  {
    "name": "Delete Packagist service",
    "description": "Delete Packagist service for a project.",
    "method": "DELETE",
    "path": "/projects/:id/services/packagist",
    "params": []
  },
  {
    "name": "Get Packagist service settings",
    "description": "Get Packagist service settings for a project.",
    "method": "GET",
    "path": "/projects/:id/services/packagist",
    "params": []
  },
  {
    "name": "Create/Edit Pipeline-Emails service",
    "description": "Set Pipeline-Emails service for a project.",
    "method": "PUT",
    "path": "/projects/:id/services/pipelines-email",
    "params": [
      {
        "parameter": "recipients",
        "type": "string",
        "required": true,
        "description": "Comma-separated list of recipient email addresses"
      },
      {
        "parameter": "add_pusher",
        "type": "boolean",
        "required": false,
        "description": "Add pusher to recipients list"
      },
      {
        "parameter": "notify_only_broken_pipelines",
        "type": "boolean",
        "required": false,
        "description": "Notify only broken pipelines"
      },
      {
        "parameter": "branches_to_be_notified",
        "type": "string",
        "description": "Branches to send notifications for. Valid options are \"all\", \"default\", \"protected\", and \"default_and_protected\""
      },
      {
        "parameter": "notify_only_default_branch",
        "type": "boolean",
        "required": false,
        "description": "Send notifications only for the default branch (introduced in GitLab 12.0)"
      },
      {
        "parameter": "pipeline_events",
        "type": "boolean",
        "description": "Enable notifications for pipeline events"
      }
    ]
  },
  {
    "name": "Delete Pipeline-Emails service",
    "description": "Delete Pipeline-Emails service for a project.",
    "method": "DELETE",
    "path": "/projects/:id/services/pipelines-email",
    "params": []
  },
  {
    "name": "Get Pipeline-Emails service settings",
    "description": "Get Pipeline-Emails service settings for a project.",
    "method": "GET",
    "path": "/projects/:id/services/pipelines-email",
    "params": []
  },
  {
    "name": "Create/Edit PivotalTracker service",
    "description": "Set PivotalTracker service for a project.",
    "method": "PUT",
    "path": "/projects/:id/services/pivotaltracker",
    "params": [
      {
        "parameter": "token",
        "type": "string",
        "description": "The PivotalTracker token"
      },
      {
        "parameter": "restrict_to_branch",
        "type": "boolean",
        "description": "Comma-separated list of branches which will be automatically inspected. Leave blank to include all branches."
      },
      {
        "parameter": "push_events",
        "type": "boolean",
        "description": "Enable notifications for push events"
      }
    ]
  },
  {
    "name": "Delete PivotalTracker service",
    "description": "Delete PivotalTracker service for a project.",
    "method": "DELETE",
    "path": "/projects/:id/services/pivotaltracker",
    "params": []
  },
  {
    "name": "Get PivotalTracker service settings",
    "description": "Get PivotalTracker service settings for a project.",
    "method": "GET",
    "path": "/projects/:id/services/pivotaltracker",
    "params": []
  },
  {
    "name": "Create/Edit Prometheus service",
    "description": "Set Prometheus service for a project.",
    "method": "PUT",
    "path": "/projects/:id/services/prometheus",
    "params": [
      {
        "parameter": "api_url",
        "type": "string",
        "description": "Prometheus API Base URL. For example, http://prometheus.example.com/."
      },
      {
        "parameter": "google_iap_audience_client_id",
        "type": "string",
        "description": "Client ID of the IAP secured resource (looks like IAP_CLIENT_ID.apps.googleusercontent.com)"
      },
      {
        "parameter": "google_iap_service_account_json",
        "type": "string",
        "description": "credentials.json file for your service account, like { \"type\": \"service_account\", \"project_id\": ... }"
      }
    ]
  },
  {
    "name": "Delete Prometheus service",
    "description": "Delete Prometheus service for a project.",
    "method": "DELETE",
    "path": "/projects/:id/services/prometheus",
    "params": []
  },
  {
    "name": "Get Prometheus service settings",
    "description": "Get Prometheus service settings for a project.",
    "method": "GET",
    "path": "/projects/:id/services/prometheus",
    "params": []
  },
  {
    "name": "Create/Edit Pushover service",
    "description": "Set Pushover service for a project.",
    "method": "PUT",
    "path": "/projects/:id/services/pushover",
    "params": [
      {
        "parameter": "api_key",
        "type": "string",
        "description": "Your application key"
      },
      {
        "parameter": "user_key",
        "type": "string",
        "description": "Your user key"
      },
      {
        "parameter": "priority",
        "type": "string",
        "description": "The priority"
      },
      {
        "parameter": "device",
        "type": "string",
        "description": "Leave blank for all active devices"
      },
      {
        "parameter": "sound",
        "type": "string",
        "description": "The sound of the notification"
      },
      {
        "parameter": "push_events",
        "type": "boolean",
        "description": "Enable notifications for push events"
      }
    ]
  },
  {
    "name": "Delete Pushover service",
    "description": "Delete Pushover service for a project.",
    "method": "DELETE",
    "path": "/projects/:id/services/pushover",
    "params": []
  },
  {
    "name": "Get Pushover service settings",
    "description": "Get Pushover service settings for a project.",
    "method": "GET",
    "path": "/projects/:id/services/pushover",
    "params": []
  },
  {
    "name": "Create/Edit Redmine service",
    "description": "Set Redmine service for a project.",
    "method": "PUT",
    "path": "/projects/:id/services/redmine",
    "params": [
      {
        "parameter": "new_issue_url",
        "type": "string",
        "description": "New Issue URL"
      },
      {
        "parameter": "project_url",
        "type": "string",
        "description": "Project URL"
      },
      {
        "parameter": "issues_url",
        "type": "string",
        "description": "Issue URL"
      },
      {
        "parameter": "description",
        "type": "string",
        "description": "Description"
      },
      {
        "parameter": "push_events",
        "type": "boolean",
        "description": "Enable notifications for push events"
      }
    ]
  },
  {
    "name": "Delete Redmine service",
    "description": "Delete Redmine service for a project.",
    "method": "DELETE",
    "path": "/projects/:id/services/redmine",
    "params": []
  },
  {
    "name": "Get Redmine service settings",
    "description": "Get Redmine service settings for a project.",
    "method": "GET",
    "path": "/projects/:id/services/redmine",
    "params": []
  },
  {
    "name": "Create/Edit Slack service",
    "description": "Set Slack service for a project.",
    "method": "PUT",
    "path": "/projects/:id/services/slack",
    "params": [
      {
        "parameter": "webhook",
        "type": "string",
        "description": "https://hooks.slack.com/services/..."
      },
      {
        "parameter": "username",
        "type": "string",
        "description": "username"
      },
      {
        "parameter": "channel",
        "type": "string",
        "description": "Default channel to use if others are not configured"
      },
      {
        "parameter": "notify_only_broken_pipelines",
        "type": "boolean",
        "description": "Send notifications for broken pipelines"
      },
      {
        "parameter": "notify_only_default_branch",
        "type": "boolean",
        "description": "DEPRECATED: This parameter has been replaced with branches_to_be_notified"
      },
      {
        "parameter": "branches_to_be_notified",
        "type": "string",
        "description": "Branches to send notifications for. Valid options are \"all\", \"default\", \"protected\", and \"default_and_protected\""
      },
      {
        "parameter": "commit_events",
        "type": "boolean",
        "description": "Enable notifications for commit events"
      },
      {
        "parameter": "confidential_issue_channel",
        "type": "string",
        "description": "The name of the channel to receive confidential issues events notifications"
      },
      {
        "parameter": "confidential_issues_events",
        "type": "boolean",
        "description": "Enable notifications for confidential issue events"
      },
      {
        "parameter": "confidential_note_channel",
        "type": "string",
        "description": "The name of the channel to receive confidential note events notifications"
      },
      {
        "parameter": "confidential_note_events",
        "type": "boolean",
        "description": "Enable notifications for confidential note events"
      },
      {
        "parameter": "deployment_channel",
        "type": "string",
        "description": "The name of the channel to receive deployment events notifications"
      },
      {
        "parameter": "deployment_events",
        "type": "boolean",
        "description": "Enable notifications for deployment events"
      },
      {
        "parameter": "issue_channel",
        "type": "string",
        "description": "The name of the channel to receive issues events notifications"
      },
      {
        "parameter": "issues_events",
        "type": "boolean",
        "description": "Enable notifications for issue events"
      },
      {
        "parameter": "job_events",
        "type": "boolean",
        "description": "Enable notifications for job events"
      },
      {
        "parameter": "merge_request_channel",
        "type": "string",
        "description": "The name of the channel to receive merge request events notifications"
      },
      {
        "parameter": "merge_requests_events",
        "type": "boolean",
        "description": "Enable notifications for merge request events"
      },
      {
        "parameter": "note_channel",
        "type": "string",
        "description": "The name of the channel to receive note events notifications"
      },
      {
        "parameter": "note_events",
        "type": "boolean",
        "description": "Enable notifications for note events"
      },
      {
        "parameter": "pipeline_channel",
        "type": "string",
        "description": "The name of the channel to receive pipeline events notifications"
      },
      {
        "parameter": "pipeline_events",
        "type": "boolean",
        "description": "Enable notifications for pipeline events"
      },
      {
        "parameter": "push_channel",
        "type": "string",
        "description": "The name of the channel to receive push events notifications"
      },
      {
        "parameter": "push_events",
        "type": "boolean",
        "description": "Enable notifications for push events"
      },
      {
        "parameter": "tag_push_channel",
        "type": "string",
        "description": "The name of the channel to receive tag push events notifications"
      },
      {
        "parameter": "tag_push_events",
        "type": "boolean",
        "description": "Enable notifications for tag push events"
      },
      {
        "parameter": "wiki_page_channel",
        "type": "string",
        "description": "The name of the channel to receive wiki page events notifications"
      },
      {
        "parameter": "wiki_page_events",
        "type": "boolean",
        "description": "Enable notifications for wiki page events"
      }
    ]
  },
  {
    "name": "Delete Slack service",
    "description": "Delete Slack service for a project.",
    "method": "DELETE",
    "path": "/projects/:id/services/slack",
    "params": []
  },
  {
    "name": "Get Slack service settings",
    "description": "Get Slack service settings for a project.",
    "method": "GET",
    "path": "/projects/:id/services/slack",
    "params": []
  },
  {
    "name": "Create/Edit Microsoft Teams service",
    "description": "Set Microsoft Teams service for a project.",
    "method": "PUT",
    "path": "/projects/:id/services/microsoft-teams",
    "params": [
      {
        "parameter": "webhook",
        "type": "string",
        "description": "The Microsoft Teams webhook. For example, https://outlook.office.com/webhook/..."
      },
      {
        "parameter": "notify_only_broken_pipelines",
        "type": "boolean",
        "description": "Send notifications for broken pipelines"
      },
      {
        "parameter": "notify_only_default_branch",
        "type": "boolean",
        "description": "DEPRECATED: This parameter has been replaced with branches_to_be_notified"
      },
      {
        "parameter": "branches_to_be_notified",
        "type": "string",
        "description": "Branches to send notifications for. Valid options are \"all\", \"default\", \"protected\", and \"default_and_protected\""
      },
      {
        "parameter": "push_events",
        "type": "boolean",
        "description": "Enable notifications for push events"
      },
      {
        "parameter": "issues_events",
        "type": "boolean",
        "description": "Enable notifications for issue events"
      },
      {
        "parameter": "confidential_issues_events",
        "type": "boolean",
        "description": "Enable notifications for confidential issue events"
      },
      {
        "parameter": "merge_requests_events",
        "type": "boolean",
        "description": "Enable notifications for merge request events"
      },
      {
        "parameter": "tag_push_events",
        "type": "boolean",
        "description": "Enable notifications for tag push events"
      },
      {
        "parameter": "note_events",
        "type": "boolean",
        "description": "Enable notifications for note events"
      },
      {
        "parameter": "confidential_note_events",
        "type": "boolean",
        "description": "Enable notifications for confidential note events"
      },
      {
        "parameter": "pipeline_events",
        "type": "boolean",
        "description": "Enable notifications for pipeline events"
      },
      {
        "parameter": "wiki_page_events",
        "type": "boolean",
        "description": "Enable notifications for wiki page events"
      }
    ]
  },
  {
    "name": "Delete Microsoft Teams service",
    "description": "Delete Microsoft Teams service for a project.",
    "method": "DELETE",
    "path": "/projects/:id/services/microsoft-teams",
    "params": []
  },
  {
    "name": "Get Microsoft Teams service settings",
    "description": "Get Microsoft Teams service settings for a project.",
    "method": "GET",
    "path": "/projects/:id/services/microsoft-teams",
    "params": []
  },
  {
    "name": "Create/Edit Mattermost notifications service",
    "description": "Set Mattermost service for a project.",
    "method": "PUT",
    "path": "/projects/:id/services/mattermost",
    "params": [
      {
        "parameter": "webhook",
        "type": "string",
        "description": "The Mattermost webhook. For example, http://mattermost_host/hooks/..."
      },
      {
        "parameter": "username",
        "type": "string",
        "description": "username"
      },
      {
        "parameter": "channel",
        "type": "string",
        "description": "Default channel to use if others are not configured"
      },
      {
        "parameter": "notify_only_broken_pipelines",
        "type": "boolean",
        "description": "Send notifications for broken pipelines"
      },
      {
        "parameter": "notify_only_default_branch",
        "type": "boolean",
        "description": "DEPRECATED: This parameter has been replaced with branches_to_be_notified"
      },
      {
        "parameter": "branches_to_be_notified",
        "type": "string",
        "description": "Branches to send notifications for. Valid options are \"all\", \"default\", \"protected\", and \"default_and_protected\""
      },
      {
        "parameter": "push_events",
        "type": "boolean",
        "description": "Enable notifications for push events"
      },
      {
        "parameter": "issues_events",
        "type": "boolean",
        "description": "Enable notifications for issue events"
      },
      {
        "parameter": "confidential_issues_events",
        "type": "boolean",
        "description": "Enable notifications for confidential issue events"
      },
      {
        "parameter": "merge_requests_events",
        "type": "boolean",
        "description": "Enable notifications for merge request events"
      },
      {
        "parameter": "tag_push_events",
        "type": "boolean",
        "description": "Enable notifications for tag push events"
      },
      {
        "parameter": "note_events",
        "type": "boolean",
        "description": "Enable notifications for note events"
      },
      {
        "parameter": "confidential_note_events",
        "type": "boolean",
        "description": "Enable notifications for confidential note events"
      },
      {
        "parameter": "pipeline_events",
        "type": "boolean",
        "description": "Enable notifications for pipeline events"
      },
      {
        "parameter": "wiki_page_events",
        "type": "boolean",
        "description": "Enable notifications for wiki page events"
      },
      {
        "parameter": "push_channel",
        "type": "string",
        "description": "The name of the channel to receive push events notifications"
      },
      {
        "parameter": "issue_channel",
        "type": "string",
        "description": "The name of the channel to receive issues events notifications"
      },
      {
        "parameter": "confidential_issue_channel",
        "type": "string",
        "description": "The name of the channel to receive confidential issues events notifications"
      },
      {
        "parameter": "merge_request_channel",
        "type": "string",
        "description": "The name of the channel to receive merge request events notifications"
      },
      {
        "parameter": "note_channel",
        "type": "string",
        "description": "The name of the channel to receive note events notifications"
      },
      {
        "parameter": "confidential_note_channel",
        "type": "boolean",
        "description": ""
      },
      {
        "parameter": "tag_push_channel",
        "type": "string",
        "description": "The name of the channel to receive tag push events notifications"
      },
      {
        "parameter": "pipeline_channel",
        "type": "string",
        "description": "The name of the channel to receive pipeline events notifications"
      },
      {
        "parameter": "wiki_page_channel",
        "type": "string",
        "description": "The name of the channel to receive wiki page events notifications"
      }
    ]
  },
  {
    "name": "Delete Mattermost notifications service",
    "description": "Delete Mattermost Notifications service for a project.",
    "method": "DELETE",
    "path": "/projects/:id/services/mattermost",
    "params": []
  },
  {
    "name": "Get Mattermost notifications service settings",
    "description": "Get Mattermost notifications service settings for a project.",
    "method": "GET",
    "path": "/projects/:id/services/mattermost",
    "params": []
  },
  {
    "name": "Create/Edit JetBrains TeamCity CI service",
    "description": "Set JetBrains TeamCity CI service for a project.  > The build configuration in TeamCity must use the build format number `%build.vcs.number%` you will also want to configure monitoring of all branches so merge requests build, that setting is in the VSC root advanced settings.",
    "method": "PUT",
    "path": "/projects/:id/services/teamcity",
    "params": [
      {
        "parameter": "teamcity_url",
        "type": "string",
        "description": "TeamCity root URL. For example, https://teamcity.example.com"
      },
      {
        "parameter": "build_type",
        "type": "string",
        "description": "Build configuration ID"
      },
      {
        "parameter": "username",
        "type": "string",
        "description": "A user with permissions to trigger a manual build"
      },
      {
        "parameter": "password",
        "type": "string",
        "description": "The password of the user"
      },
      {
        "parameter": "push_events",
        "type": "boolean",
        "description": "Enable notifications for push events"
      }
    ]
  },
  {
    "name": "Delete JetBrains TeamCity CI service",
    "description": "Delete JetBrains TeamCity CI service for a project.",
    "method": "DELETE",
    "path": "/projects/:id/services/teamcity",
    "params": []
  },
  {
    "name": "Get JetBrains TeamCity CI service settings",
    "description": "Get JetBrains TeamCity CI service settings for a project.",
    "method": "GET",
    "path": "/projects/:id/services/teamcity",
    "params": []
  },
  {
    "name": "Create/Edit Jenkins CI service",
    "description": "Set Jenkins CI service for a project.",
    "method": "PUT",
    "path": "/projects/:id/services/jenkins",
    "params": [
      {
        "name": "jenkins_url",
        "description": "Jenkins URL like http://jenkins.example.com",
        "required": true
      },
      {
        "name": "project_name",
        "description": "The URL-friendly project name. Example: my_project_name",
        "required": true
      },
      {
        "name": "username",
        "description": "A user with access to the Jenkins server, if applicable",
        "required": "optional"
      },
      {
        "name": "password",
        "description": "The password of the user",
        "required": "optional"
      }
    ]
  },
  {
    "name": "Delete Jenkins CI service",
    "description": "Delete Jenkins CI service for a project.",
    "method": "DELETE",
    "path": "/projects/:id/services/jenkins",
    "params": []
  },
  {
    "name": "Get Jenkins CI service settings",
    "description": "Get Jenkins CI service settings for a project.",
    "method": "GET",
    "path": "/projects/:id/services/jenkins",
    "params": []
  },
  {
    "name": "Create/Edit Jenkins CI (Deprecated) service",
    "description": "Set Jenkins CI (Deprecated) service for a project.",
    "method": "PUT",
    "path": "/projects/:id/services/jenkins-deprecated",
    "params": [
      {
        "name": "project_url",
        "description": "Jenkins project URL like http://jenkins.example.com/job/my-project/",
        "required": true
      },
      {
        "name": "multiproject_enabled",
        "description": "Multi-project mode is configured in Jenkins GitLab Hook plugin",
        "required": "optional"
      },
      {
        "name": "pass_unstable",
        "description": "Unstable builds will be treated as passing",
        "required": "optional"
      }
    ],
    "deprecated": true
  },
  {
    "name": "Delete Jenkins CI (Deprecated) service",
    "description": "Delete Jenkins CI (Deprecated) service for a project.",
    "method": "DELETE",
    "path": "/projects/:id/services/jenkins-deprecated",
    "params": [],
    "deprecated": true
  },
  {
    "name": "Get Jenkins CI (Deprecated) service settings",
    "description": "Get Jenkins CI (Deprecated) service settings for a project.",
    "method": "GET",
    "path": "/projects/:id/services/jenkins-deprecated",
    "params": [],
    "deprecated": true
  },
  {
    "name": "Create/Edit MockCI service",
    "description": "Set MockCI service for a project.",
    "method": "PUT",
    "path": "/projects/:id/services/mock-ci",
    "params": [
      {
        "parameter": "mock_service_url",
        "type": "string",
        "description": "http://localhost:4004"
      }
    ]
  },
  {
    "name": "Delete MockCI service",
    "description": "Delete MockCI service for a project.",
    "method": "DELETE",
    "path": "/projects/:id/services/mock-ci",
    "params": []
  },
  {
    "name": "Get MockCI service settings",
    "description": "Get MockCI service settings for a project.",
    "method": "GET",
    "path": "/projects/:id/services/mock-ci",
    "params": []
  },
  {
    "name": "Create/Edit YouTrack service",
    "description": "Set YouTrack service for a project.",
    "method": "PUT",
    "path": "/projects/:id/services/youtrack",
    "params": [
      {
        "parameter": "issues_url",
        "type": "string",
        "description": "Issue URL"
      },
      {
        "parameter": "project_url",
        "type": "string",
        "description": "Project URL"
      },
      {
        "parameter": "description",
        "type": "string",
        "description": "Description"
      },
      {
        "parameter": "push_events",
        "type": "boolean",
        "description": "Enable notifications for push events"
      }
    ]
  },
  {
    "name": "Delete YouTrack Service",
    "description": "Delete YouTrack service for a project.",
    "method": "DELETE",
    "path": "/projects/:id/services/youtrack",
    "params": []
  }
]