[
  {
    "name": "Get current application settings",
    "description": "List the current [application settings](#list-of-settings-that-can-be-accessed-via-api-calls) of the GitLab instance.",
    "method": "GET",
    "path": "/application/settings",
    "params": []
  },
  {
    "name": "Change application settings",
    "description": "Use an API call to modify GitLab instance [application settings](#list-of-settings-that-can-be-accessed-via-api-calls).",
    "method": "PUT",
    "path": "/application/settings",
    "params": []
  }
]