[
  {
    "name": "Get the current Queue Metrics",
    "description": "List information about all the registered queues, their backlog and their latency.",
    "method": "GET",
    "path": "/sidekiq/queue_metrics",
    "params": []
  },
  {
    "name": "Get the current Process Metrics",
    "description": "List information about all the Sidekiq workers registered to process your queues.",
    "method": "GET",
    "path": "/sidekiq/process_metrics",
    "params": []
  },
  {
    "name": "Get the current Job Statistics",
    "description": "List information about the jobs that Sidekiq has performed.",
    "method": "GET",
    "path": "/sidekiq/job_stats",
    "params": []
  },
  {
    "name": "Get a compound response of all the previously mentioned metrics",
    "description": "List all the currently available information about Sidekiq.",
    "method": "GET",
    "path": "/sidekiq/compound_metrics",
    "params": []
  }
]