[
  {
    "name": "Single vulnerability",
    "description": "Gets a single vulnerability",
    "method": "GET",
    "path": "/vulnerabilities/:id",
    "params": [
      {
        "name": "id",
        "type": "integer or string",
        "required": true,
        "description": "The ID of a Vulnerability to get"
      }
    ]
  },
  {
    "name": "Confirm vulnerability",
    "description": "Confirms a given vulnerability. Returns status code `304` if the vulnerability is already confirmed.  If an authenticated user does not have permission to [confirm vulnerabilities](../user/permissions.md#project-members-permissions), this request will result in a `403` status code.",
    "method": "POST",
    "path": "/vulnerabilities/:id/confirm",
    "params": [
      {
        "name": "id",
        "type": "integer or string",
        "required": true,
        "description": "The ID of a vulnerability to confirm"
      }
    ]
  },
  {
    "name": "Resolve vulnerability",
    "description": "Resolves a given vulnerability. Returns status code `304` if the vulnerability is already resolved.  If an authenticated user does not have permission to [resolve vulnerabilities](../user/permissions.md#project-members-permissions), this request will result in a `403` status code.",
    "method": "POST",
    "path": "/vulnerabilities/:id/resolve",
    "params": [
      {
        "name": "id",
        "type": "integer or string",
        "required": true,
        "description": "The ID of a Vulnerability to resolve"
      }
    ]
  },
  {
    "name": "Dismiss vulnerability",
    "description": "Dismisses a given vulnerability. Returns status code `304` if the vulnerability is already dismissed.  If an authenticated user does not have permission to [dismiss vulnerabilities](../user/permissions.md#project-members-permissions), this request will result in a `403` status code.",
    "method": "POST",
    "path": "/vulnerabilities/:id/dismiss",
    "params": [
      {
        "name": "id",
        "type": "integer or string",
        "required": true,
        "description": "The ID of a vulnerability to dismiss"
      }
    ]
  },
  {
    "name": "Revert vulnerability to detected state",
    "description": "Reverts a given vulnerability to detected state. Returns status code `304` if the vulnerability is already in detected state.  If an authenticated user does not have permission to [revert vulnerability to detected state](../user/permissions.md#project-members-permissions), this request will result in a `403` status code.",
    "method": "POST",
    "path": "/vulnerabilities/:id/revert",
    "params": [
      {
        "name": "id",
        "type": "integer or string",
        "required": true,
        "description": "The ID of a vulnerability to revert to detected state"
      }
    ]
  }
]